--------------------------------------------------------------------------------
MACROS
--------------------------------------------------------------------------------


<note:1:top:titolo>
<note:1:left:titolo>
<note:1:bottom:titolo>
<note:1:right:titolo>
<note:1:inline:titolo>

<tag:1:top:titolo>
<tag:1:left:titolo>
<tag:1:bottom:titolo>
<tag:1:right:titolo>
<tag:1:inline:titolo>

<comment:1:top:titolo>
<comment:1:left:titolo>
<comment:1:bottom:titolo>
<comment:1:right:titolo>
<comment:1:inline:titolo>

<script:1:top:titolo>
<script:1:left:titolo>
<script:1:bottom:titolo>
<script:1:right:titolo>
<script:1:inline:titolo>

<summary:1:top:titolo>
<summary:1:left:titolo>
<summary:1:bottom:titolo>
<summary:1:right:titolo>
<summary:1:inline:titolo>

<person:1:top:titolo>
<person:1:left:titolo>
<person:1:bottom:titolo>
<person:1:right:titolo>
<person:1:inline:titolo>

<location:1:top:titolo>
<location:1:left:titolo>
<location:1:bottom:titolo>
<location:1:right:titolo>
<location:1:inline:titolo>

<image:1:top:titolo>
<image:1:left:titolo>
<image:1:bottom:titolo>
<image:1:right:titolo>
<image:1:inline:titolo>
