<?xml version="1.0" encoding="UTF-8" standalone="no"?>
<!-- Created with Inkscape (http://www.inkscape.org/) -->

<svg
   xmlns:dc="http://purl.org/dc/elements/1.1/"
   xmlns:cc="http://creativecommons.org/ns#"
   xmlns:rdf="http://www.w3.org/1999/02/22-rdf-syntax-ns#"
   xmlns:svg="http://www.w3.org/2000/svg"
   xmlns="http://www.w3.org/2000/svg"
   xmlns:xlink="http://www.w3.org/1999/xlink"
   xmlns:sodipodi="http://sodipodi.sourceforge.net/DTD/sodipodi-0.dtd"
   xmlns:inkscape="http://www.inkscape.org/namespaces/inkscape"
   width="400"
   height="250"
   id="svg2"
   version="1.1"
   inkscape:version="0.48.0 r9654"
   sodipodi:docname="splash.svg"
   inkscape:export-filename="/home/nissl/develop/eclipse-anacleto-workspace/org.pragmas.anacleto/splash.png"
   inkscape:export-xdpi="90"
   inkscape:export-ydpi="90">
  <defs
     id="defs4">
    <filter
       inkscape:collect="always"
       id="filter3892">
      <feGaussianBlur
         inkscape:collect="always"
         stdDeviation="2.9312977"
         id="feGaussianBlur3894" />
    </filter>
    <filter
       inkscape:collect="always"
       id="filter3916">
      <feGaussianBlur
         inkscape:collect="always"
         stdDeviation="2.8389105"
         id="feGaussianBlur3918" />
    </filter>
    <filter
       inkscape:collect="always"
       id="filter3974"
       x="-0.029302686"
       width="1.0586054"
       y="-0.10482067"
       height="1.2096413">
      <feGaussianBlur
         inkscape:collect="always"
         stdDeviation="4.41149"
         id="feGaussianBlur3976" />
    </filter>
  </defs>
  <sodipodi:namedview
     id="base"
     pagecolor="#ffffff"
     bordercolor="#666666"
     borderopacity="1.0"
     inkscape:pageopacity="0.0"
     inkscape:pageshadow="2"
     inkscape:zoom="0.99321533"
     inkscape:cx="-14.465975"
     inkscape:cy="120.55586"
     inkscape:document-units="px"
     inkscape:current-layer="layer1"
     showgrid="false"
     inkscape:window-width="1440"
     inkscape:window-height="875"
     inkscape:window-x="0"
     inkscape:window-y="1"
     inkscape:window-maximized="1"
     showguides="true"
     inkscape:guide-bbox="true">
    <sodipodi:guide
       orientation="0,1"
       position="400.90511,355.26127"
       id="guide3957" />
  </sodipodi:namedview>
  <metadata
     id="metadata7">
    <rdf:RDF>
      <cc:Work
         rdf:about="">
        <dc:format>image/svg+xml</dc:format>
        <dc:type
           rdf:resource="http://purl.org/dc/dcmitype/StillImage" />
        <dc:title></dc:title>
      </cc:Work>
    </rdf:RDF>
  </metadata>
  <g
     inkscape:label="Livello 1"
     inkscape:groupmode="layer"
     id="layer1"
     transform="translate(0,-802.36218)">
    <rect
       style="fill:#ad7fa8;fill-opacity:1;stroke:none;stroke-width:2.20000004999999987;stroke-miterlimit:4;stroke-opacity:1;stroke-dasharray:none"
       id="rect3091"
       width="400"
       height="250"
       x="0"
       y="0"
       transform="translate(0,802.36218)"
       inkscape:export-filename="/home/nissl/develop/eclipse-anacleto-workspace/org.pragmas.anacleto/splash.png"
       inkscape:export-xdpi="90"
       inkscape:export-ydpi="90" />
    <path
       style="fill:#5c3566;fill-opacity:1;stroke:#000000;stroke-width:1.06299173999999996;stroke-miterlimit:4;stroke-opacity:1;stroke-dasharray:none"
       id="path3116"
       d="m 44.538513,945.98238 c -3.192362,-2.79763 -6.411349,-5.57895 -9.422828,-8.50127 -1.007502,-0.97766 -2.039043,-1.94261 -2.965173,-2.96934 -1.055635,-1.17031 -1.982616,-2.40995 -2.973917,-3.61493 -4.367634,-5.87284 -8.303938,-12.32202 -8.691491,-19.26161 -0.06455,-1.1548 0.105162,-2.31034 0.157775,-3.46552 0.313032,-1.10072 0.497285,-2.22939 0.939086,-3.30216 1.44473,-3.50799 4.238139,-6.44809 7.824032,-8.77872 4.185911,-2.7206 10.0909,-4.90382 14.541653,-6.83352 1.918669,-0.57306 3.788466,-1.2613 5.756028,-1.71917 8.825603,-2.0538 19.524699,-2.59836 28.567205,-1.19819 2.181367,0.33777 4.287691,0.92847 6.431531,1.39272 1.903185,0.71615 3.902453,1.29069 5.709541,2.14845 5.358345,2.54338 9.347219,6.28909 11.983125,10.74179 2.28749,3.86415 2.65289,6.06441 3.89965,10.22037 1.9371,8.24684 1.58544,16.66512 2.58949,24.98401 0.83573,6.9243 1.09108,7.02192 2.82099,13.79663 0.87236,2.11935 1.56017,4.29187 2.61708,6.35803 3.13591,6.13038 7.93732,11.49273 14.49308,15.63885 6.27103,3.96606 8.99855,4.53835 16.3288,7.25025 3.3837,0.84494 6.7144,1.8362 10.15106,2.53481 11.87726,2.41443 24.17089,3.2257 36.40506,3.06002 4.50189,-0.061 9.00846,-0.21373 13.48845,-0.56973 5.15353,-0.40952 10.25641,-1.14974 15.38462,-1.72462 21.65049,-3.16911 42.79259,-8.28974 63.17282,-14.85431 12.25126,-3.9462 15.61463,-5.43335 27.35859,-9.96681 13.25496,-5.32429 25.91982,-11.57757 37.69791,-18.75695 6.16881,-3.76021 7.67192,-4.96342 13.26456,-8.92929 7.0884,-4.71199 18.08331,-14.46673 19.72101,-15.13551 -0.80641,1.35054 -1.94659,2.52406 -3.12882,3.68694 -3.56533,3.50701 -7.51363,6.75686 -11.63895,9.85282 -5.75394,4.02631 -7.34626,5.27438 -13.66278,9.09755 -14.19425,8.59129 -29.66674,15.76129 -45.52276,22.2477 -11.70765,4.48326 -14.96722,5.91846 -27.18133,9.8193 -20.43112,6.52515 -41.61552,11.58486 -63.27255,14.82908 -5.24031,0.62809 -10.45083,1.4386 -15.72098,1.88428 -4.5098,0.3814 -9.05118,0.52328 -13.58582,0.59417 -12.36594,0.19334 -24.79418,-0.58429 -36.82112,-2.95711 -3.49167,-0.68887 -6.8799,-1.67172 -10.31985,-2.50758 -7.42145,-2.69179 -10.26991,-3.28049 -16.62468,-7.25983 -6.73638,-4.21829 -11.46039,-9.53527 -14.62587,-15.81845 -1.05165,-2.08741 -1.73112,-4.28032 -2.59669,-6.42048 -1.80716,-7.11718 -1.88575,-6.58144 -2.86196,-13.83686 -0.30698,-2.28154 -0.53868,-4.56947 -0.73875,-6.85844 -0.1804,-2.06405 -0.22676,-4.13445 -0.40252,-6.19876 -0.53602,-6.29536 -0.56136,-5.61153 -1.69655,-11.74526 -1.27417,-4.10844 -1.645519,-6.24304 -3.938172,-10.05558 -2.615953,-4.35015 -6.538348,-8.02495 -11.788562,-10.51848 -1.772941,-0.84204 -3.734025,-1.40711 -5.601043,-2.11067 -2.108991,-0.45735 -4.18041,-1.04155 -6.326961,-1.37208 -9.216831,-1.41921 -19.584871,-0.76182 -28.522191,1.44416 -1.97304,0.487 -3.847467,1.19544 -5.771195,1.79315 -1.177314,-1.28431 -0.322663,-0.47031 -4.529947,2.18096 -3.558882,2.24268 -6.361594,5.07727 -7.863806,8.49424 -0.460494,1.04746 -0.671281,2.15341 -1.006911,3.23011 -0.08293,1.13949 -0.284694,2.27745 -0.248858,3.41848 0.167588,5.3359 2.576224,10.60734 5.651334,15.29564 0.856203,1.30537 1.853869,2.54962 2.780817,3.82443 1.016689,1.1777 1.979167,2.38583 3.050071,3.53308 1.506182,1.61358 4.262212,4.14097 5.97867,5.64313 1.52178,1.33178 3.546756,3.01308 5.237724,4.2584 0.554458,0.40832 1.150677,0.77968 1.726009,1.16952 z"
       inkscape:connector-curvature="0"
       sodipodi:nodetypes="csscccsscsscsscscsscssscscsccscscscssscsscssscsscsscsscsscssccc" />
    <path
       sodipodi:nodetypes="csscccsscsscsscscsscssscscsccscscscssscsscssscsscsscsscsscssccc"
       inkscape:connector-curvature="0"
       d="m 44.538513,945.98238 c -3.192362,-2.79763 -6.411349,-5.57895 -9.422828,-8.50127 -1.007502,-0.97766 -2.039043,-1.94261 -2.965173,-2.96934 -1.055635,-1.17031 -1.982616,-2.40995 -2.973917,-3.61493 -4.367634,-5.87284 -8.303938,-12.32202 -8.691491,-19.26161 -0.06455,-1.1548 0.105162,-2.31034 0.157775,-3.46552 0.313032,-1.10072 0.497285,-2.22939 0.939086,-3.30216 1.44473,-3.50799 4.238139,-6.44809 7.824032,-8.77872 4.185911,-2.7206 10.0909,-4.90382 14.541653,-6.83352 1.918669,-0.57306 3.788466,-1.2613 5.756028,-1.71917 8.825603,-2.0538 19.524699,-2.59836 28.567205,-1.19819 2.181367,0.33777 4.287691,0.92847 6.431531,1.39272 1.903185,0.71615 3.902453,1.29069 5.709541,2.14845 5.358345,2.54338 9.347219,6.28909 11.983125,10.74179 2.28749,3.86415 2.65289,6.06441 3.89965,10.22037 1.9371,8.24684 1.58544,16.66512 2.58949,24.98401 0.83573,6.9243 1.09108,7.02192 2.82099,13.79663 0.87236,2.11935 1.56017,4.29187 2.61708,6.35803 3.13591,6.13038 7.93732,11.49273 14.49308,15.63885 6.27103,3.96606 8.99855,4.53835 16.3288,7.25025 3.3837,0.84494 6.7144,1.8362 10.15106,2.53481 11.87726,2.41443 24.17089,3.2257 36.40506,3.06002 4.50189,-0.061 9.00846,-0.21373 13.48845,-0.56973 5.15353,-0.40952 10.25641,-1.14974 15.38462,-1.72462 21.65049,-3.16911 42.79259,-8.28974 63.17282,-14.85431 12.25126,-3.9462 15.61463,-5.43335 27.35859,-9.96681 13.25496,-5.32429 25.91982,-11.57757 37.69791,-18.75695 6.16881,-3.76021 7.67192,-4.96342 13.26456,-8.92929 7.0884,-4.71199 18.08331,-14.46673 19.72101,-15.13551 -0.80641,1.35054 -1.94659,2.52406 -3.12882,3.68694 -3.56533,3.50701 -7.51363,6.75686 -11.63895,9.85282 -5.75394,4.02631 -7.34626,5.27438 -13.66278,9.09755 -14.19425,8.59129 -29.66674,15.76129 -45.52276,22.2477 -11.70765,4.48326 -14.96722,5.91846 -27.18133,9.8193 -20.43112,6.52515 -41.61552,11.58486 -63.27255,14.82908 -5.24031,0.62809 -10.45083,1.4386 -15.72098,1.88428 -4.5098,0.3814 -9.05118,0.52328 -13.58582,0.59417 -12.36594,0.19334 -24.79418,-0.58429 -36.82112,-2.95711 -3.49167,-0.68887 -6.8799,-1.67172 -10.31985,-2.50758 -7.42145,-2.69179 -10.26991,-3.28049 -16.62468,-7.25983 -6.73638,-4.21829 -11.46039,-9.53527 -14.62587,-15.81845 -1.05165,-2.08741 -1.73112,-4.28032 -2.59669,-6.42048 -1.80716,-7.11718 -1.88575,-6.58144 -2.86196,-13.83686 -0.30698,-2.28154 -0.53868,-4.56947 -0.73875,-6.85844 -0.1804,-2.06405 -0.22676,-4.13445 -0.40252,-6.19876 -0.53602,-6.29536 -0.56136,-5.61153 -1.69655,-11.74526 -1.27417,-4.10844 -1.645519,-6.24304 -3.938172,-10.05558 -2.615953,-4.35015 -6.538348,-8.02495 -11.788562,-10.51848 -1.772941,-0.84204 -3.734025,-1.40711 -5.601043,-2.11067 -2.108991,-0.45735 -4.18041,-1.04155 -6.326961,-1.37208 -9.216831,-1.41921 -19.584871,-0.76182 -28.522191,1.44416 -1.97304,0.487 -3.847467,1.19544 -5.771195,1.79315 -1.177314,-1.28431 -0.322663,-0.47031 -4.529947,2.18096 -3.558882,2.24268 -6.361594,5.07727 -7.863806,8.49424 -0.460494,1.04746 -0.671281,2.15341 -1.006911,3.23011 -0.08293,1.13949 -0.284694,2.27745 -0.248858,3.41848 0.167588,5.3359 2.576224,10.60734 5.651334,15.29564 0.856203,1.30537 1.853869,2.54962 2.780817,3.82443 1.016689,1.1777 1.979167,2.38583 3.050071,3.53308 1.506182,1.61358 4.262212,4.14097 5.97867,5.64313 1.52178,1.33178 3.546756,3.01308 5.237724,4.2584 0.554458,0.40832 1.150677,0.77968 1.726009,1.16952 z"
       id="path3132"
       style="fill:#3d2343;fill-opacity:1;stroke:#000000;stroke-width:1.06299173999999996;stroke-miterlimit:4;stroke-opacity:1;stroke-dasharray:none;filter:url(#filter3974)" />
    <g
       id="g3946"
       transform="translate(5.4098628,-14.369137)"
       inkscape:export-filename="/home/nissl/develop/eclipse-anacleto-workspace/org.pragmas.anacleto/about.png"
       inkscape:export-xdpi="88.253693"
       inkscape:export-ydpi="88.253693">
      <image
         style="fill:#000000;fill-opacity:1;stroke:none;filter:url(#filter3892)"
         y="827.08728"
         x="4.4657717"
         id="image3082"
         xlink:href="data:image/png;base64,iVBORw0KGgoAAAANSUhEUgAAAIAAAACACAYAAADDPmHLAAAABHNCSVQICAgIfAhkiAAAIABJREFU eJztvXmQHNd5J/j78s6s++qqvtANgDhI4iAhipR1WOZQGo1GOz4nxrYc4YjxhkejmXDMTtjhCJ8R e8z62Fh7PPbMhk+NLEqWQxZ18JBNSqRAAqCIiyTAAwJxo9Hou+7KO7/9IysLWdXVjQYBkLSMX0RH dWW+ly+zvu9993sJ3MEd3MEd3MEd3MEd3MEd3MEd3MEd3ME/FdC7fQP/hCACkAHo3U8VgAJgEUDj 3bqpOwxw6yEgJLYKIAGgAGAUwLgkSZtUVZ0OgiAhCEIuCIKsaZpfBfCneJeYQHo3Bv0BAaF/VmcB jAAYA1AhoinDMDbLsjzFzNlNmzZVDMNI7d69m8bHx5FMJnHmzBn+whe+IHY6nacAvP5uPMQdBrg+ COGsVgAYAHIASgDKAIqCIEyIorhJUZTNmUymlM/n8+VyufjAAw9Io6OjmJ6eRqVSwZYtW0gQBJZl GYIgoFqt4sKFC/jqV7+a6nQ6+Xfr4e4wQEjcSGxHullDKL5TCIk9KoriJlVVpxOJxFZFUfK+72d3 7dpV2rVrl1ypVHDfffdhenoayWSSCoUCS5IEQRBARLBtG67rRsTnZrNJRMSpVAqVSiW3tLRURsho /E4//D8VBogIrCAU10mEM7kAIAMgQ0QjoigWE4lESRCEgizLedd1DV3Xk8VicaxYLGp79uyh7du3 8549e2jz5s1IJpOsqipEUaR2uw1JklhVVVAIBoAgCBAEARKJBAFg13VJEAQkk0mSZZkrlUr+tdde G0NIC/ed/mF+kBhgcBYbuDaDywBGiGhCUZRxRVEmJUnKZbPZ5PT0dKZUKmUymYycTCZJEARs3bqV t2zZgnQ6jVQqRZlMBpqmIZ/Pg+ia3czMvU/HccDMUFUVAOB5HkRRBAAoitLrI8syUqkUBEFAs9nE 9PS0KAjC1iAIdNxhgOuCcE0nx42vCkJLu0JEI5qmlQVBGAdQVFU1XSqVips3b85XKhVx586dmJyc xPT0NHbu3AlVVanRaCCRSEDTNAYAQRAQBAEJgsBExNVqFel0GswMZoYgCBwEAQRBAAAEQcD5fB5B EMBxHEiSxK7rgoggCELULhLvLAgCAWBVVfHggw/SF7/4xbtM00zjXfAE3ssMQAjvLwGgiFBcp7t/ GQBFRVGmVFXdJoriiCzLIxMTE4VyuSzv3buXtmzZwqlUiicmJkhVVRQKBRSLRWiaBtd1SZIkjghf LpfheV6PYNFnhHw+Hyc+APSdj2Y6EUHTNARBAF3XETFBdC6OIAjAzNi+fTtrmlYxTbMEYOY2/ZZr 4r3CAHGXKoFQZE8T0VbDMO7WNO0eIsolk8lUEAQZTdOMcrksj42N0T333IO9e/fi7rvvplQqxY7j ULlchiRJICJiZrRaLRiGQZIksW3bpKoqms0mJZNJlmUZzAxJkqL7AAAmIgRBACIi3/fh+z5kWQbC mdxrF7t/cAgAIMuyOGKG6BgRse/71B2PiIhLpRKlUqlytVodB/AK3mFD8J1mgEhPawgNsQJCHZ1H 6EOXdV3fQkTbdV2vbN++ffTee+9Vtm7dysViEffeey+pqsrJZJJKpRIkSWJN0yAIAgVBANu2oShK z/CKZqYkSRGBIUkSRFFENpvt6fBBvU5EvU8AcBwHmqYNbRf/P5IKRNRnC0T3BFyTFhFTpdNpVCqV 4qVLlzbhXTAEbzUDCLg2m3WERliu+5dGqK+LmqZtArA1mUyOJpPJtCAII4ZhJEqlkrxnzx66++67 +YMf/CCNj4+zYRjsui4kSYIsy9EM4/iPbVkWExESiUREeO7OXhARDMMAujNLEAQGQMzMg2IZ3Zkf JywA1nW9xxTxdhHhI4s/6ud5HkeqpCs1onGj+yAAHBmEO3fuVI4cOXI3MxsA6reEEhvEzTIAIST0 BIBtCIlsACjouj4lSdJmIiqpqprMZrOZfD6fUVVVqVQqoqqq+NjHPoZCoUDT09MYHR1FNpvtzZRI BAMgURR7MwcDIpiZoWkaAX0/PImi2CNKXAQDIMdxoCjKML+7J8pjBI6O9RgiOhYRPn4/tm1D07Rh DEZBEEQGIJiZBEFgz/Owbds20jRtV9cO+EfDAHkAHwbwPkVRfnhkZGSboijZVColbdmyRcpms+Lo 6ChPTEzggQceoImJCaRSKaiq2tOncTEafQqCgPC3I0iSRL7vrzKgYuid8H0foihGhIHv+z2CR22Y mYA+t4yA0CCLG3UIJUTkzw9VFd3jfecBkKIoPYbriqtep4j4QRBAkiQwMyUSCezcuZN1XZ8wTXMK wJkN/fq3CG+XAQQAPyLL8h/m8/nxD37wg8JnP/tZvP/97wcRUSKRYN/32fd9AICqqhzXyV1CcUQ0 z/PiBlb0Q1NkVEV6NAaOE4WZ4xKCmJljBB1mVMVnP63RluLjDB0cwOD5rnTg6FxMSlz78bpuYFdF 0LZt22hiYmJsZWVlC4D9ALwh93xb8HYZgABk9+3bN/7Hf/zHwtTUFAqFQm+GuK4LWZZ7+o+I4DhO T6wTEURRxKCe9H2/dyxO2Bhxr93AwGwcmIl90iXeLt5mQNev23a9sTfSLhon7kpG3yuVCvbt26ef OHFiGmG08h1jAOH6TYaCATiO43g7duzoBUmAULzJsgzf92Hbdti462Z1xTpEUewxQhyiKK5JlOv9 yENm4prXiPe53jhrjbvR84P3FFc1kepRFAVjY2OkadpdCN3gdww3wwD1xcXF+Waz2ZvBQE+HwzRN qKra5/7Ef/hopq+HuEU+bDYNax//HNDrq/oPkxCDzBEzRtcda9g9Xg+RZEskEti9ezc0TRtHaFu9 Y7gZBrjQarXmjx8/DiIiz/N6T9+1A3oiPTocOx3/HgfFj3eJQLHj8Wv0rPPoXCw2Hz/XdyxqFwWJ +h6KmeJ9I0Ovq7P7xo/aXblyBY1Gozd+7J6HPVtv/Pj9EhFKpRKn0+k8wqjnO4a3ywAAMNvpdF55 7LHH4DgOo9+A4kFxFzs/+DnYZvA4D/wNazfsex9ixtiGxo/NcI4wbPyxsTGk0+m+fsMMv3jfiHej E5IkYcuWLZTP5wsIGeAdq9S6GQZoOI5z7MiRI03btsn3ffK8nu3Sc8dioNhsjX/2tRlyfKgEGGg3 7Pu1L/0SZ93xabUcpwg3Ov7g8w9+xtXN5OQkdF2Pspc3Q5cbws0M5AI4OTs7e/bUqVO8tLSEZrO5 rlG0lo7cqBUdGXbDLPn1+l/PUBum4+PHh8UBImzECIz6rTVOdJ2dO3dqCMPj71iI/mY57Xyj0Th1 4MABMgwD6XR6XaNoo4Req30s9Np37EYs8WFYy1iMh5uH3c96feOI+q3XlogwNTVFgiBMIqxneEdw swxQ833/xIEDB3zDMOLxeY4SMjFEGba3ZQN09epQG2Dg3HV18K0cPwoPR893vfGZmbvucV8bQRAw MTHBkiSNIIwFvCO4WQawAZx+5ZVXFlqtFpmmCaAX5x6qA6NwKNbQwUOORxb2hnXw9azwjYwfu/cN jz/ohQwbn4hoIPWMaDxRFImIVIRp8XcEN8sAAYAzy8vLMy+99BIPiv/1dN7N4EZF/o3658PGuBk1 MyzgNUx1KYoCURSjBSPvCG6FtXnFtu3XTp061Revj4c83w7WItpgcmgjxH07xBtmgF6v3VoMv1Fb Zvfu3awoSglhids7glvBAE3HcV47efKkH0/lArc2jBpdN15+tV67+PWHtR0kwEbGvl77QaNxEPH7 iRJl8eOTk5NULpe3ArgXYU3FbcetYAAXwLmjR48umKZ5Q7J2vR80LiIH3bHBdoPXGxbzX6/fRnE9 93NwvGH5iQhRyBy49nzpdBoPPPBAmoj24h3KCdwKBmAAFy9fvnx1fn6+Z+kCq+LlN2yFR/1iFniv 70CelmPDxj2NwWtvaPyBRFJ07RuORA4wCQ+c69lM8WKX7du3I5lMbkZYWHPbcasiTlcdxzl/9OjR eGx+EH3W97Xg2qo2fceJiHzfpyAIYgG5fis8CIK+77GqmzXHH3aPUbQvrqNjEcANewHDHizeN3Zd DNwnTUxMUJeBb9xyfRu4VQxQd1335Pe+972gK876ZkDMV+59Xguv92GVHx4EAYuiyIIg9ELyPNC5 W293bcoOl+/XlQDMHEmb3n1HM38wDjBMAg0Za83x448QM2x5amqK44m1241bxQA2gO9/+9vfrnYL NOMzYnAGrTWLBtuiew0amIXAtZh937meeBget7/u+LFs4HXvfYhkiIu0da8xcDwqDwMRkaqqJAhC CuHah9uOW8UAAYDz8/PzM+fPnwczw/f9YfpyWJRtFbozEUTE13El15v5w6J2feMNfo9L5QG7Za24 wNDxByUerc5E9srFBl3BLVu28NjY2HYAu/AOJIVu5QALlmWtnDt3Dq7r9hWArIX1fOu4FxDTx6v6 DbPMr/d5o+Ovd+8bSUwNu85aHkqhUKBHHnmkAuB9CCuubytupa8pAPjQ5s2b905MTGB5eRmLi4to NptwHCcy1OKh4AhrcQlFK3OGnVvn+xpdVht/MYOyv2FMk6w1/gBT0eD/A9fqHe8as2uOL4oiarUa nnrqKdP3/WcB1IY9zK3CTacdiUhj5ilFlv/5XVOVR/b//df5jcPPQZZEkCDAcjwwiZBVnZPpHHKF IquaRrpucGV0DKOjoyiVSkimUiiPjHA+n+8rDKWwIGMtgzJCn+sWd0MH3Lnok7BaA/TaDIw31KAb 8PXjor/v/uLHujWA1x3/oYcegq7rk47jbAJwYcj4tww3wwACgL0JQ/vV0WL2X3mer/zkP3u/pGkK yaKIhKGxaTlQZRFMBMu2iUDs+cvkmQGsmkPfP3+Mj7ZMtG0Xc0t1JLNF+sAP/zN8+tM/x2NjY1Fk jYYQMpo1EeFpgDGG/cAU9Y36YICRLMsiXdcHOw5KgL7xB9r0jT/QjyLirzU+ugbixMQE5/P5iXq9 fheAgwB83Ca8LRVARJIgCJ+eHhv560LaeDChqYqmSOJSrYmRXIb8IIDreUglDczMLUOWRSSNBOma Ct/3SVNV5DIpJDUVCV2lTZUCskkdmytpvHz0JXzpb/8OK9U6jU9MIFqzPyCJh4rRyJLeqAoY/B6t H4yOR9eLjbPu+HHVEZcifR3677Wvb3RMkiQcOHBAOXXq1CkAh3Ab1wveMAMQICqK/O/Girk/enD3 1iwJBEEg2K6HRsvErm2byPU8lkQRfuDj+BvnkU7qOPb6WTTbHYwUcphdWCYOAm51LLQ6NhVzGUiS CPYDLhezyOgiThw/Ql957OuAIGHHjh09o3IYceNJmO4PPSwSOfAYq2Yv0D8jhxF+gz/RtdqAQUaI 3eaq8aNjzIyTJ0/iyJEjVc/zvg2geaM3sVHcsBcgCML/MjGS/79/6L5txtxSDZViFsVcCvfeNYli Lo1XTnXdwCCAZTtYqjbQsWzYjotqvYVGqw0wYNoOHNdHwAFsx4EkClAVGamEgZVaC7u3bcLOsRT+ 5gt/hZmZGbTbbfi+vyrOH585g95ChLcT9+8+a+//G7lm/N7iHkU88LMeRFHEJz7xCUiSVEFYI3jb cKMMMD41Vvq9j7xvZ0aRJJoaK6GYTWFqtETNtkU7psdQa3RQb5m0VGvA9wPoqgLTcuD7AdWaHQRB WCwyM79CjXYHF68ugZkRMANEFAQ+ZdMJpJMGmm0TjWaH/uov/4J+73d/hxYXF6nLBL2ybCDU3URE nudF6/F7YhZYZW33fQ6K9tj5eIn3qoKQAT0z2C+y+OPM2dMm3dj/Wt4NAcDdd99NiUSijHDbuRsW QxvFjagAUhX5s++7e/PPOK5HhWwSU+MlWLaLtmlTuZiBKAowdIUKmRQ4YDiej+VaC54fwLQdUhUZ ggBiBhZX6hBIQKWYIVmWQAxcnF2EKIpQZBGeH9DJty7CYplWZi9AcVbw9P4Xce+u3Uin033EUxSF mHuLTfoIGJMIQ91AHl6902t3PTdwoG3fuQFpFDHl0L6DkGWZvvrVr8qzs7PfQ7hxxG2prrkRCVBJ JbR/O1JIs6pI3OiYPDO3AlWRUW20OQiYJVFEpZiD5/vsBwF8P4AiSxBFAePlPOfSCZiWy4VMEq7r MSNc+6dIIlbqLQBgy3KYGXA9DzPzVZgdiwtJmScrBU64i/zL/+k/4uDBg2xZFkcqIYrXRzdKA+v1 u4jH8QGAHccZfMbedaK+vu+vykYO5iJooCZx4P++bCgNiQoOuw4R4UMf+pCOcNm9thZRbhYbZgBB EP7lnm1T2wmEWrNDhqbSpauLOHdpDsVcik6dv0Ku58GyHciyRL4fQJZEOJ4HZsB1fcpnkvB8n2YX VmA7Hnmuh3RChyCIGC3l4LgeSZJIfhCg2TbRtj3YZot8P6COZVOlmKPtZQ2//3/9Nj377LPUbrfR XYtAAzO/n/L9GcqeGxZf0hadw8CMFEUxLv7jU3xwvFU1gQOxi+uui4irGVEU8dGPfhSyLO/BbVwt tKE4AAFKPp34qW1TZVIVhVsdE6osYWqsRABgux62TJShyBK1OhYsx4WmyKE1DFA+k4TrebBdl/KZ BGYXayAieAGT47pgMHw/wHKtiXIxC9fz6cKVRTiuT1vGDIiSiCBgKLKEfDqJ92/X8Ie//19ARPSh D30IyWSytydQ/La7QaRBXR2djBr0P2t/XGGVOhlsN9A3fr1V+wMMUSdDxX+kJu655x7ouj7huu5t CwhtSAIwYIiiMJE0NG53LDCDry7W2HE9vnh1iTVZ4lqjzR3L4Y5p4+U3z3Mxl2LLdqCrCmuKxAA4 CJhtx2MOGBOVPEuiwK4XIAhCr0FRJBYFYkkQ+OzMAmRJ4Hza4KnRIo8UMiwQsecHMDSV75nI8v/z u/+Fjx8/zu12mz3Pi4vlwQTU4B+wOqUbP7aqLw1PB/f9bXT8eCJpMD8VGwuVSgXlcnkcwORGaXWj 2KgRWFFk6T/LkmgwgLnlGhgM03Jg2S78IEC9ZWJmfhlJQ6NM0sD8Sh2qIiOfTcG0HDRaHRAIHdsB EVEhm4KhqdBVmQBCs2Oi2mgjldDRMR0cfeMCbR4rYGq0iNFSDh3ThiAKsGwHATMMTYEi+Hjimf24 f9/7kE6ne1JgDSNslUE2+P9ACHitgFIfBsR83yxfKw4x0GaVuoobrd/61rfkc+fOHQJwFLfBENwo A+zWFfmz1Wabzl9ZxEqthYXlBpaqTTTbHVTrbXQsOySKLFG91YHlOCAQJFFEJmXAtBykkjpabQuy JJKmyBBFAZIokixLWKo2QUQYG8nhjbMzmF2s010TI5gcLaJtWpBEEbbtwnY8mLaDRstEuZBFbWUR x19/C/v27YOu69H2a32bMMTR9Rb6rPb4+RjRVunxYQwRJ3J3d9Drcs3AtYeOD4R7Gb366qt05MiR VxCGhG95RHBDNoAkSQ+U8hlhy/gIFEVCs20ioWsgApptC8yMaqMF1/XRbJsIAsYbZ2ewfXoUiiyB CMikDDiuh2wqgbZpQ5ZEyN3Qq+N6sCwb4+UCLNvF5bkV3L15FFNjJSiSCBZFSKIIl30s11sYyafh ej5aHQu7tk1h/5FX8Oijj+IXf/EXIQgCuvH8Vc8REXEwhRtP7MSDN9GxtYg/iCFG5VAMJJJW3UcE QRBQLpchCMIm3/d1AO0NDXAD2IheEZOG9kMfvG8HbZsepenxEoq5NGmqTNHsVhWZJipFyqYNpJMG koZGWzeV8dbFqzj51mXIkgjfD4hAcD2PJCn01z3fRzaVgOt5sBwXrudT27SIgwCbx0sYG8mDATI0 lSRJIGYmQSD4fkCqLBEzo2Pa+OB92+iFZ56g/fv3o9lswnXdVcYdYhMv+h6PzgG9VPVg30inxINP PWs9Ziz2GYBDfsdVgah4CDt+neiYLMuYmJiAJEnTuE0RwesyABEpmYQ+umm0wOmEzgAhoatMRKyp CnRVAYVrAXn79BhURYKhKZxJGhgvFzC/XMfp2SbmlxtMBHQshzVFhut5nNBVzC1VsVRtolLKgZl5 brHG4+U8irkU2paNpK4xutHUC7MLDGbkM0k2NJVt10Mpn0azbfGW0Sz/t//6/+L06dNotVrsuu7g jBr0v4emeYccHzQEh7WLzg+Ote74Q6qd4rEGCIIQqbZRAFO4DRHB6zIAM2vJhJbVFBmW7ZDjuDAt h9JJnTIpA6mkhvFynkzLpZffPI9Wx8LcUo2CgLF9ahST5TxOv/UW5lsBuYKGlKGR4/oIAqYr8yuQ RBHNlolsKgFFlujqUo1GSzmoigxRENA2LVJliaqNNs3OV2mp2sJKvUUkgHLpBM7PLCCfSZAfMGWU AH/915/H4uIimaY5GHMfGgoeAA0pyKSBPwz83+e/r3ftwc9BCRS/bqSKxsfHaXJychTAZtyGxSIb UQGaoSnpRtsk2/WQyyQBAkzLwcJyDTNzK3jrwlUQAbqqoNW2MF4pYGwkB0WWUC5mMTVWxOLVy1hs +UhP7ETAjOVaE7brYXZhBcV8CgvLdSzWGjA0BeMjeUjdkHA2ncBKvQVNkeEHAWzXRSqhASBoqoJi LoWVRgtjI3ns3TGFU68cxsGDB9FoNKJKpKEPtVYyZ9iOZNE11kribMQ+GNZ2I7ZFMpnEtm3bVFEU t+E2lIhthKN2l3KZ/zBZLkiiKKBt2jg/sxBG81wPrucDBPJ9H+ViFgldo0arA1kKCcgMKJKEgJlO nz6D+aUq3ffQR1BbmkOnYyGfSZLnBUgYKq7Mr6BSykFVJIiCSJIkwnZdEohw9vI8yoUsEoaGkUKG unYF0ikDvhdQvdVBEAQYL2Xo+e+9jPu6rqGiKIM5gj7rHgOzdVjsPlrFM2S/o2HfV7mBA8dX9V2D CQgAHMeh2dlZHDx4sOa67jO4xVvKX08CUCph/PiW8ZIqSyKXi1n2gwCaKrPtenx1sYaF5TqShsbj 5QIvVZvoWDYCZm6bNpaqTUiiAEkSMFku8JbJEZDT5C9+8UuYvOf9vHXHTqQSGkRRgOv6MHSVK8Us O64Hx/UgECEImE3bYdtxeX65xvdsHUerYzMRsSxJsG0XDOZ8JsWjpTyShgayqvzkk0+iVqvBtu0o K7dKBw/54VfZAFEAaDAQFP0fWwexKhfRu+hAlXC8zZB8Rd99SZLE9957L4hoBLfBELweA6QMTfnY 6EgOAQd09tI8vXXxKlodi5iZpsaKeN+9W5BLJ6jdsUJTmYBCJkmZpIFKMYuZ+RX4AWO53qR0Qkc6 aVApreHRz3+OGp4KTlSQTRlodSxsmRihtmnRSCELBsNxPWiKTIamUiqhUymXpo5pYySfJj8IwtyD 48CyXPJ9n0zLhiiKeODeLfSdv38Cb775ZuQVAGvo4AGEj7A6i7emDRCVrSE2k4eEiFeNv0agiRDa Ib0DoijSvn37KJfLlRC+FOOWGoLXY4BcPpOYFIhIUxV4vg/bDV+sUClmwQxU621YtgsGkMuEeXzb CaODb567grDqJwzayLIMTZWRSmjYsamMp5/8Br77vZehjdyFVEJDEDAcx8P8cg0pQ0PHtLFYbeDc zDwAYHK0AEWWUW92oEgSiATIkgTTdiBJImqNNogAURCwZ0sJX33sq1haWsIQg3BdDDHONtzvZuG6 LlZWVnoMKAgCMpkMpqamSgDGcYsNwesxQFkUhHwuk0SrbaHZNrF1YgSjpRwSugpNlSGK4WxJ6Cos 20WzbSKXTuDE6UtYqjZhaAoCBtqWDdNyYFouUgkd+WwS2zaVYdbm8fm/+Tsopa24slDFSCGDVseG 7XpQVRmjpTw6lo3J0QJURYHjeQg4gGFoAAJ4ng9RFLCwUkfC0KDIMhRZwo7NE7j4/ZM4ceLEdQ3C QQzUEfSObZTAN8IIg21FUUSpVOobT5IkbNq0SUPoCt7SzSOuxwATuiqLrY6FYi6NkUIGK/U2TNtB 0tCQSycwUS5gtJSF5/kICz4EHHrlNGzHxUQ5LPHWFRm1egsdyw6liONCVxXomoJdd02ilJTx5Lf+ AXs/8kmsNEwUskm0OxayqSRURcJkpQhDVcNsYCYFRZbQbJnIpVMQRQG6poCIUMymAA4gCAQw4767 RvHE49/E0tISOp1OnxQYJHB0LP45eGy9UPBaxyJCDgtJD+sf32Mg/nqaD3zgAxBF8R7c4iVj6zKA INCmaqPN9WYbQRCg3uxAU2UUsymUC1kosoRaq4MLVxYxXs5DVWScOjcDPwgwPVZCwIyJcrjzaSmf wVK1AU0Nt4lPJw0Us2k0WyYyKR2bR1L4+mOPYe9HfxQLtU5YG1hvwrRc7Ng8AUWRIEsi6o02CtkM ZEmEFwQgAIEfIKGpWKw2kEwY8LwwJL15ooxLZ97E66+/gUaj0TMIIwKsRZT497Vm80YIHx0blpS6 nvs3EKHE1q1bYRjGFMISsVuGdRlAEsXNm0YLSCV0djyPN4+XeMtkGabt8GK1EaVmUcyl+OpilQ+9 8n0AhEohy7IsQZElMAPppA7bcVmSRDiOywldxfxyjQ1NAQMIAkalmEVG9vjLX/w873j/I1huu2Ew SCS2HYdTCYNtx+V8Lo1mq82CKLCmyAgY0DWVJUnkTWNlNNsmspkkZ1IGHMfF/dvG8MzTf4+VlRW2 LKtvzeIwL4C572URwBrpYKy2+vsig0OkSDyVvOb48b0NmMM1lq7r8uTkJBKJxBhucY3gegwgioIw nsukSFNk0hSZGi2TTMuGIklkWjblM0m0OhbqzQ69cXaGDE3F9EQJCUOjIOAwC9hN3168ukgpQ0PC 0GhytIhM0qCAGdmUgVI+g0xSR8LQKKcG9JUvfR5NymC+4cJxXFquNun0hStUzGcoCHxomkqmaZPV Nf4836dyIUvNdgeZpAFmkCgIkCQRO7aMY+b893HmzBnq2gJRDH5YMUgvl7yWFzAsZj9YERRPSccv H312t84fGi0cXDpHRCQIAqXTacrn8xnc4p1E17uQpCpSNqEpDBC3OhZeZiQLAAAeQElEQVQv1Zrc 7tiQJJHzmRQLAsF1PZybmedCNsXv37UVSV1Ds22yqkiYW6qFBtpyA57n82gpj2IuzTNzK1iutfjs pTlYtguBwrUFWyfLXG20eCSt4tXDByFmJ/DaxRU2HYczSYMty2EiAZIocqVU4FbHRMe0oMoSdyyb s+kkJFmGJInhnoTMEAUB906PYP/+/Vyr1WCaZvQii1WyPSryGMjS9RVzxKVCvOvg9/g1BuMA3bel bDgXIYoiJ5NJ3rFjh4qQAW7ZTqLrMYAiS1L2+xeu4s1zM9Tq2DQ+kqdMKoFsKkGu59Gp87P01qWr VC5mabSUIz8IaH6pjvGRPFUbbdoxNYZ6s0MLK3XKZ1LUbJtk2y6pigRREqiUT5MoEkr5NNqWg45l k6YopGsK3TVRwEvf/Rbtev8Pk68VKWCmheU61Rtt6LpOnu8RQCSKIuWzKfI8j5gDAjMkUSTX80lT FAiCSHt2bKZTr71MMzMz1G63yXXdVbuKdNE305lX7VQ+GAfo+xuINq65P0AsLjB0/HhJWpShVBSF 7rnnHoGIxnELdxJdjwFkgLVCNkUJPdz33w8CVBstLKzUsVhtYn6pxtNjI5xNJaAqEpaqTR4v57FS b6GQTXKt1cFyrcmaInMmZSCT1NnzfdSbHUxVipAliVMJHbIkIpdOwNBUJA0VkihyIZvCvVsn+Ftf +xI2bbsXSE9iYaUOUSQsLC0jYEYQMBfzaW51LIyVSyAitrovqVAUiRkMz/fY9zy+q5LGoUOHuF6v x43Btfy13v4Ew3L3se99M7an3Pt1/ND9AeLtVxGl+2bSqAkzQ9d17N27lzVN24lb+E6B9RhAdz0/ a4clXFiut9BomXC98H13lWIWH963E5oqY2G5jquLNSR0FabloGNayKUT4aog04GhK8imDCiyjMlK EZqqoNWxEDKFgXbHAgDML9exVGtB7u6YkcskUcmn8dTf/TUyxQpykzuwsFyDrqlYqTVRyqchSxKK +Uz4mhpJgiIrcFwXoiBCkSQ0Wx1YtoN7t07g8KHncfnyZbRaLXiet66FP1gIciMJn0Gm2WhBSRxR Uir24kls374duq5PANh0QxdbB+sxQK6US+cZgKrIIAIs2wEDELq+d63Rhu8HsLp+fa3Zgef72DRW wlK1hdmFKnKZBHRNharISBgarswvY/N4CaIooNky4QcBMukEEroKAlDKpSCKhGwqAcfxkEpoSBsa vvXVR+GxCH1ka1gXGPhQFBW248F2XJAgYKXWgCgJcBwPkiQCIIiCgFwuC9OykRAcPPfcc6jX6zcc HRxEvFRs8Niwc8OYbS2mGLxmlIwaHR2lqampcQDTuEURwfUYIKUqsj5ezrOmyCwKAs/Mr7Btu2i3 bb58dYnnlmtwPR87pse42TZZU2UoioRG2+TLc0vwfB/5TBLphA5JEpk5QD6b5HZYTMoMRqtjIZ0w YNkuRkfyPFEucCmXgarIYA6Q0FWeGitxJmnw2RMvcsfxYYzdzZbt8tJKFaJAkEWRNVXldDKBZrON dDrJruvB9X3k81lwEMDzfVYVCYeef44vXryIbiXxqg2t0RW7sdKwPiPwGo36KDpoPDKwanfwVcmo IUzRVxASPyYIAudyOR4ZGUmJongXbpEdsB4XaUT0M6osJV3PJwbI9X1SFAkAk66qVClloesqavUW CRS+vjWXSpDnB3T20jwqYY0/cukECtkUWbYLRZap0TKhqwqNFLIwdJU0VYEcShUSRYF8PwADpKly uMgkCGgkn6Faq0PLV2fgiQaNTu+guUtnETAjnUpQs9kiVQvdTBCRJIqwLSckAgELS1UiEBKqQJ6U wObNm0nXdXQ3ZYqeOV6QsZbBF52Ou4tDE0XrpYN936dYImnN8aNyNM/zSBAEunjxIr344ouz3VXD neuTeH2sJwGutE3n5UgFCERh+FZVMJLPIOAAjaYJWRSRTOhQFAmGpuLczDzePDeDQjaJlKFhz/ZN KGZTqNZb0FQZruchndBQyqdhOy46poN6sw3b9Xo7g3QDRyAA6YSO5WoTqipjaqwIRZbw/ZdfxKm3 zmL6/h+B6zNa7Q4EUYTjOBBFEa1WB62OCdfzIIoCVlbqOH1xDlNjJezZMY3XTp7A8vIyOp1Ony0Q F+EbtQHWUwGDxxuNRq/PsMKTQYkQV1HRb7Np0yYWRXEctygkvB4DmK2O+cevn7lsXllY4bYV5uBt x4XrepxLJzn0CtrQFJkbbZMbrQ7mlxtgZh4r5VDMpcLMnSyhY9pcb3Vg2S5rqoJ6s8NjI3moioTD J89gYbmOWqPNHdPu1RUUc2ms1FtczKV4YbnOmizz9Fho7c++dYIPHDiEze/7OFqWzxwEnE6lML+4 jETCYMcN7YB2x0LHsuG4LicMDbIs8czFc5ifn+dWqwXHceLVwqviALFjG1YBA95Azyvovl6vbwey wZgDM0ceQMQkPRVARPzAAw9AluUsblFtwPUiSs/Xmp1v+UEA0wojemH4lbFUa6DZNpFJ6vCDAIVM EnPLdfi+j83jI3B9H7bjwfMDLFebSCZ01FsmJsoFMAeQJBEr9SaWqk1snSyjmEuHs73WxPcvzGKl 3oLjhQZe0ghfw94ybbi+j4f2bkfS0GAuX8JLLx5CYduDWKybME0TuUwKtXodlmUjm0nDcRzMr9Sx Y3oMqWQCr5++gHxCxrlz59But3tZwmEzOf7/WrN62LH1LP5hOYEYA4KIVkmHeEJpbGwMW7ZsuWXL xq/HAG3X8/+PN89deS2hq7Ash1odC822RYsrDQoCxmK1AQBUrbep2TYxOpKLSirQaHUgCIRkQgcB lDI01JttanUcVIpZunBlEZIkolzIQlUkNDsmzS5Wad89m5HPJDE7vwKA6PLcCjmuHy0ShSqLdNem CqUMDcuX3sTxY0dpcs8P09XlBkzLhuf5JEsSbMeBLMtwXQ+ZVII8z4XtuORYJp799j/Q0tISuvmB VeXdMeL0gjOxH7xvf4J4vy7B+myAYQUh8fYx4veNH7WL9D8Rkaqq2LFjRx6hK3jTEcHruRIMoGo5 7vErCys7BIEmDV1DwAGZlgPP95EwNMwuVunClUVk0wkkDY10VYHWdfsMTYEoElzXJz/w0bZsKhcy mJlbRsu0MDVaJEEgtNoWHNcHgWDaDkr5DImSgHwmRXZXTJu2g3RSh6FrdGV+BdPjI3A9D4tXZ6hh +tj14A9j4dJb5HkeUgkdBMab58IFKvlsmhaWqri6WKNcOoFmvQpBS2H79u2k6zpkWe5LxcaIONSg G0bcfrvtugyANb4PHqf4FvmiKOLkyZPC888/fwbACwh3aX3b2IgvyQCWXM8/uFxvtWqNTjmV0LK5 dIJGihlU622s1FrIpHRIYrgAhAEuZJO9HUJEUUQhm0JUV+B5Pi1Vm7x1ooKrSzXKJA24no+3Ll7l LRNllPIZjOQzvWLM5VoLxVwauqZg02gRF2fD9HPbtFEp5tAyLbSr87h4dQXv/8jHafnKWa41WlBl CX4QQNdUCALh1PkrqLfaGMlnaMfmMf7u4ZN46AMfoOit5qIoRhHAXkJnrSBOnLiDhKaBer81EkMc +7/3W8fGW9UpCAK0221Uq1U89dRTza4ncFP7CG6UAQIAHWa80bHsQ5fmli9cnltJLK40cqoiyVsm RmDaLgFAPpskgUDNjgXLdtEyrTDo07FIEkXMLdVI1xRIokiW4yKXTpDnBZiZX0Ypn6Zm26TRYg7L 9SYZmoq5pRqNlfJUbbRotJij5VoT7Y5FhqYSwCACErpGnheQ3VzGfNWkvQ99hFoLF2FaNmRZQjad xNJKgy7PLWN6rEQBgG3TY3Ty1FlMTN9FIyMjMAwDkiT1snFEtFYsHwP/D34fFuNH/HwkYYYQui+f MOBikmVZJMsyJEnCl770Jcc0zecBXN4ADdfERqNJjHCvOgdhWfJ5z/dfbLTNV2cXa81Lc8sZRZZS qiwKoiAyEZGmKqSHIV9arrXIDKuBiIigSDLapo18Jkm246EVZvQwks+iXMxCEARKGhoWVhokEoXR wpTRCyHLkkiqKoc+P4g4YCR0FQGDZi6dx9T2XShPbafG/EXUm20qF7J0/vIcDF0lXVMwXi7AdX14 nkt1R8C2bduQTCahaRoG9u+5poiHq4A4wQbVxTCG6LseDREN0emI+SKJ4Pt+b6e0TqeDxx9/XF1c XHwRwOu4iVXDNxJOjDOBiXDrslkArziu9+JitXF2udaSLcfNeL6vNNtWr/QLAHLpJOYWa90FHxK5 vs+aIgMA1ZptTHXdu6ShRf4R+X7AhWwKiiIhk0piZm4JI/k0NFXGcrWFfCYF07J7toFAQMdyaH7m Im+5534k8qNozF+AqkhYrrewabQIEGBoCgHE6aSBl09dovvuvx/pdBqGYXD0lnP0i+kbQa/fIH0H xPtQFRDbZ5mCIOD4moQgCHo7i3/nO99Rzp49ewrAS12avC3caDw5YgIXgIUwEtUCsAzgrOf736u3 OkcXluuzS7VWe6XRMi3b0RVZUizXpUImhUzaQDKhUbgkzEIyodPWyTKCIEA+G64QWqk3cWluiTJJ A5IsIZVMwHbCVUmKLKPZNqHIMhrtDhQ5nBWWFW47N5JLU7Vex+uvncRHP/4pOKTgwuk3kDQ0GLoG Q1MhSSI12x1kUwaOvHaOdu+9H4VCAclkEoqirKmDN4i1pEb8WO+E53kUzW6gb2VST5pEtkh0TpZl nDhxgl599dWa67rP4iYWi7zdhEKcEWyEEqHdvZGrAN4MguCI43rfqzU7x68u1ZaXai3Fsp207/li LpWAabso5lLIJA1aqNbhBYxGswPfDzC3XIMkCrR98wQc10UQMASBkNB12I6DdsdCKqHDtBygW3LW aJnQNSVUD7IE9lzsP3AA//pnfh4zVxcxN3MRxVwajutB7O5DlDR0nJ+Zo8rkZoyOjiKdTkfGYM8G WM+nXwNrMkD0nZl7K4M9z6P429a6+wl3m6+ORzAzPM/DpUuX8NRTT7V83/82gLkbvckIN5tRigxE D6EYikuFBoAqgFlmnHBd72C10T5xZbHWPnNpPg9wIp3UYdku1ZsdjI3ku2nlKogI99+9hS5fXcR4 pQQOfBh6uCyu3TGRTiVgOw5EgZAwuusJXBe6pmKp1qSkoYGIoAmMZ58/iP/4n38Vz79wAAmFIRBB kkQKM4YSFqt1ShZGMTk5iUwmA13XcenSJZw9c5bGxsfWZIDrWPir0N35PNY9zPLFN5SIexQA4kzS CwUD6KmDRx99tOG67nO4if2DbuUig0gqeAgZIS4VGgBWAFxi5pcd15tbaXTuCZR08vT5GfJcB0u1 BsZG8pRJJiiTNHDp6hLde9cmgEACEQlE1Gh1KJ00EPgBiYJAuq5C11RYtkPNVvjGskI2TZGxp6sK BM/CmYtX8LFP/QQdfvEgDFUiWRIRcLhBVbNlkZgoYHp6GtlslgRBoM985t+hXC7Tnj17Imv9bXsB saBSn3XfZ0VeI3zfdaJ23TeKUrTlPlFYJ/i1r30tWFlZeQ7AKbw9e+W2bDwUSQQToSSoAVhCqBou AzgLYD8zv7Ft2zb86q/9JnY9+FFcqdr49osnuNZss64p2Hf3FviBD9t2WZYV9nyfFUlk13UhSRLr msrJRAKyJMOyXV6qNdnzAxABQnfvgnQqiUIuDX/lPI4cfpEf/tGfxexSnf0gQCZpcBAwVEVEqxW+ 08CyLP7c5z7HZ8+exSOPPIJuujiq1F2zKniN7wD6JMRgLWKvTfTK3eg6UYQwtqaRmTnKB8BxHPZ9 n7PZbA7h28bfNh1v92vKI/ckbi+0Adiu6x5YWVn56AMPPCDdf//9+OQnP4nDhw/TgRdewOvnXuf7 tk9g9/YpWLZNrutC11UYugbHdZk5oADhi6ht10Gj3SFRFJBNJziV0GHZDqmywo7ropBLw3VcnDv/ KnUmN/GDj/wEHXv2a9i6qUK6prAoCOg4DlzXxVNPPUW/97u/gz/4w//K2WwWjuNAkiQa2EWccW2W Dlry8e+Dr58jURQ58v+DIIi2j4eu91Z9k+/7kCSJW60WEokEPM8jURQhCAJarRZeeOEF/vKXv0z7 9+8/d/Xq1TMIJ9bbmv3AO/R2yhjirmSq3W5/+Bd+4RcyExMTlM/nsWPHDjz40EOYnN6KUxfn6IXD r0KkgLKpBNKpBKI3kiuqSmI3/dtotmFaDiV0FePlAkzLppn5FRAAQ1chkADP8zFRKdKBAwex96GP 0NXFGsz6IhK6ipZpkYlwT6H//if/De974AE4joNisUj5fB6iKNKQ198MGnqD6uDaA3NcGFwLFcd1 fTz1LIpiVKRCXf+fZmZm+NFHH6Vf+qVfsv/sz/7s9PHjx/+2Vqv9f0EQ/AXCbWTf9uZRt1sCrAUf wJumaZ4/efLk1LZt22AYBjKZDHK5HEZHR7Fv3z6cO3cOzz//PB5/8QjGsxq2T1UwXs6HPyoRFFlB o7WIfCaFbDoJVVNx5tJVBBxAEAUIggDHcaEoMogIH9yzGX/36F/gf/u1/x1f+5v/iY5ZRa3RxrJP +Ku//HO02yZeevFFiKKEYrHUtzv5Whgw7oaeW8uaHwwnR2PV63V4nocDBw7gb//2b/mFF15YWFpa es113e8gfH/ASYSq9aa3jXunJUAcnud5O8fGxj7wsY99jFRVhaIorOs6NE1DOp2mkZER7Nq1C3vv 2wdX0HD45Fs4+eYZSAIjmzRgOw50TYWmKpAkEaZpw3E9andsHi8XkDAMhCJVBAFw/QCj+QS+s/8g /dz/+h/4u999AZevXKWXX/s+ms0mCMw/9uM/iV/+5V9GMpkkSZKgKApiwaEeBr2AeJAnnguI94u9 W7nXBjF3z3VdPn78OA4ePEi/8iu/4nzuc59769ixY19ttVp/HgTBnwN4GqENZeImxH7fc9yKi7xN SAD+7f333/8Hzz33XLJbLBGJeQ6CgBzHYcuyqNVqodFoYGlpCSdOnOCDLzxPjaUr2LWlzFsnKlAV mdqmBc/3udZoEwCMFHKsKhIc14PjuLAdh1RFZlVRaKlax5Kfxocf/jj/9z/8fXr91GmQKOPHf+In 8dBDD0GSJP7ABz5AxWKRk8kkRbuMdMG4Fs8fZgMQgF7hR5wxmJnr9TqlUqnoFfI8Pz9PS0tLOHPm DD/22GM4duxYa2Zm5tVWq/U0gAMIZ3sVt+m1Me8mAwDAh7PZ7J8+8cQTd//QD/1Q3HVidH8w3/fJ dV3Yto12u41ms8nVapXOnDmDgwcP8sy5U5gqJWismIXtOCyLIomSiJFCjj3fRxD4qDVaMDSVPN/n ZMKgRqsN2/FhGROcLZTob77wPzFzdb6rgyU8/PDD/Fu//dtUqVQ4kUiQLMt91jxiBI/l8dGd1eT7 fvRyqDio254iZj569Cjv378fzz//fHtmZuaibduvOo7zAkIxfxZhTOWWzPS18G7ZABHOOo7z+tNP P33Pnj17YBjGqvRqN1gCVVWh6zrS6TTy+TxGRkZwzz33YGZmBgcOHMCzhw+hkhKxZbKCzaMliJIE coFOJ1QTCUPH4nINluTAUBWcOnseLesSRrbeh5/+uZ/H5z//eXz84x/Hgw8+iJ07dyKZTCKyvteL Bg6K+Pj9R7Pfsixomgbf97G0tISnn36av/jFL+LIkSNnWq3WQc/zvgfgNQBnEMZLbts7ggbxbjPA SqfTOfryyy//a1VVVyXHIhEaXycvyzI0TUMikUAmk0GxWMSWLVvw8MMPY//zz+PI8aM4fuoSdkyN YPv0JJgAQ9egqCqSCR3fPzeD7x59Ey3bR+A6MM4t4tOf/jQ++tGPot1uo1Ao9PR+fLvZwa1nB1y8 VfcdIdrxo9Vq8f79+/GNb3zDeeGFF0612+3vMPMzAI4hJLo39GK3Ge82A7gAri4uLjYty0onk8ne iWHMEP0JggBJkqCqao8RcrkcpqensfjJT+LUqVM4fPgwvvLdE1DggsCoNztomg60ZBp7H/wwjh87 isBX8IlPfAJPPvkkfvRHfxRHjx7Fq6++iomJCYii2GOCYcSOu27Dcgau6+LNN9/EN7/5Tbz00kve sWPHLq6srJxzXfcQgOcAnABQx20W8dfDu80AAYD5S5cuVVutVjqZTPas59hMi1fb9o7FGSHyHpLJ JLLZLMrlMt93331YWlrC/Pw8Go0mPM9lURShaRofOXyEVpYW+Cd+6t/gQx/6ECqVCr7+9a/j4Ycf 5meffRbT09O9bVqilGz8vjhE18104Hkei6KITqeDarWKZ555hr/85S8Hr7766hXTNE87jvNdhLt9 fx/AAm6hFX+zeLcZAAAuNxqNmWPHjk098sgjpGkagL7NE/qCLpGBGP1PRJAkibozlnVdRyqVonw+ zyMjI9i0aRPa7TYsyyLP83hxcZH2f/dZfPxf/Ev62U9/mhVFwdTUFCRJwqOPPkoPPfQQ/vRP/5RL pRL27dsXvTEkzpTsui4pigLXdblWq2F2dhZPPvkkDh06xEeOHLna6XTe6lbrHEOo22cR5kfeE0SP 473AAHOWZb125MiRD37qU58C0F9PH7emY2K4L9Yed7lUVYUsy6xpGlKpFBzHgW3bcF2XbcfBo48+ yvfu3kO/+Zu/xaqqwvd9yLKMn/7pn8bKygo/+eST2L17N/7oj/4Iv/7rv46dO3eyJEmI1JPneZif n+eFhQV85zvfwTPPPOO88sorF9rt9jnbtl9CSPCTAK7gHbDibxbvBQZoeZ538uTJk47jOGqUG+/m xYft5Rd3w/oQbdcuiiJ1DUZWVZUMwwAz4xvf+AYunD+PP/+Lv8DIyAjZvaXkCmRZxmc/+1mam5vD Sy+9hEQigT/5kz+h3/iN38D4+DguXbrEr7/+Oh5//HEcOHCgevHixXPtdvs1Zn4ZIdHPIhTvNm7T G75uB97tOAAQ3sO/2Lx58/84cODAdKkUloZ16+DZtu2+ggkM+OGxIMuqc8A1qREEAT3xxOO8d+99 NDY2Bsdx4Ps+C4JAkdXveR5Onz6N3/qt3+Jjx46Rqqr84IMPotls0vnz563z58+/FQTBIcdxXkQ4 yy8hNOQ8vMdn+lp4L0gABnBpeXl5/tSpU1Ojo6PkOE5vSfQA8XuIG4rrxesjW0IURfzYj/14r6Im 8vEB9OrsPM/rbc169OjRwPM8euKJJ9g0ze8FQfD3CCNzJ3AbI3PvNN4LDAAA86Zpnjp48OBDP/Ij P9L35o2oRGo9v3tYm7XKuSLr/erVq0in07AsC7Ozs3z48GH6h3/4h87x48cvLiwsnAqC4EIqlfqw pmnvC4IgZ5rmiwgzb038gBAfeO8wQMN13ZcPHjz4s77vy4Ig9CRAvDI2hr4vUaFE3EiMiN8Ny4KZ e9vELS8v0xtvvMEvvPACnnvuufprr712znXdk0EQHEYo2s8B6DSbzQlVVT+j6/rPe573713X/TWE qewAPyBM8F5hABfAmZdffnl2aWlpulKp9Hx/WZYHDcGhBRkxGyD63ltlU6vVsLy8jBdffBGPP/54 cOLEiaXZ2dnLnU7nGDMfRSjWzyNMsUZhWBGAbdv27/m+vyCK4n8C8AiAr3TbBPhHqvfjeK8wACP0 lavNZnOqXC6v2TAWjAk7DonQua6LWq2GV199FYcOHcLRo0fbb7zxxqXLly+f9X3/KIA3AZxGWKLW wPAwrI/Qd1/2PO/PgiBYFEWx5vu+DEDu9vlHLwXeKwwAALVOp1OrVqvk+z5HNfA8OP37Z3rvMADY to0zZ87wk08+iW984xvt11577Wyn03klCILvIVxBcx7hGoaNumo+wqidHwTBlxBuy/KPxsXbCN5T DGDb9rnPf/7zD+/evRsAekuh1kvABEGATqeDU6dO4Stf+Qq++c1vXrl48eIrtm1/G8BxAG/hWobt 7YjsACHDRKVswk1c6z2H9xIDtF3Xff3QoUNuEARSjPhRgQWAXm6ALMvCpUuX+LHHHsPXvva1uTfe eGPGcZzDnuftRxh3n0VIsFtBKMY1kR8t6/qBYID3EgjApyqVyoU33ngjCIKAfd8PfN9n3/c5CAJ2 HIevXLkS/OVf/iX/1E/9VL1UKr0E4A8A/AyAPQByeHfL3O7gJjEhiuIXPvOZzwRzc3Ncr9eDVqsV vPXWW8Hv/M7vBJ/61Ke88fHxt1RV/QqAfw/gfgBZ3CH628Z7IRQchwjgn2cymf9z165d+zZt2oSL Fy+2Tpw4cdnzvNOWZR0GEMXeF3ATq2LvIMR7jQEAQAPwcSL6AACLmaPVROcRrjCycUf/3jK8FxkA CCWBgpDQPzBBlzu4gzu4gzu4gzu4gzu4gzu4gzu4gzu4gzu4g3cN/z+nRfeit5ztBQAAAABJRU5E rkJggg== "
         height="128"
         width="128" />
      <path
         inkscape:connector-curvature="0"
         id="path3896"
         d="m 41.078084,943.269 c -0.278148,-0.45005 -1.245919,-4.16255 -2.150604,-8.25 -0.904685,-4.08744 -2.301388,-9.76254 -3.103785,-12.61131 l -1.458905,-5.1796 -6.628766,-2.14153 c -8.693038,-2.80843 -13.960683,-5.55233 -15.236817,-7.93681 -1.458797,-2.72578 -1.20802,-8.11615 0.87861,-18.88543 1.849134,-9.54354 4.055397,-13.90907 7.916398,-15.66417 2.683103,-1.21966 2.709556,-3.11164 0.171557,-12.27031 -2.585184,-9.32895 -2.548179,-11.06948 0.25,-11.75847 4.349237,-1.07089 66.61442,-10.53861 68.25,-10.37773 2.265668,0.22286 -6.762893,1.94266 -18,3.42873 -6.6,0.87283 -15.825,2.27106 -20.5,3.10717 -9.871677,1.76553 -26.046177,4.33344 -27.5,4.36598 -0.55,0.0123 -1.607268,0.40722 -2.349484,0.87757 -1.111604,0.70444 -0.936851,2.62172 0.991365,10.87662 l 2.340849,10.02143 7.680678,0.66999 c 8.927592,0.77877 14.23174,3.68078 20.824334,11.39346 5.9398,6.94897 15.134989,26.00071 16.527713,34.24417 0.726961,4.30284 0.738615,4.31298 2.482467,2.15941 l 1.752078,-2.16372 0,2.47465 c 0,1.36106 -0.441793,2.7477 -0.981763,3.08142 -0.586119,0.36224 -0.434997,0.95321 0.375,1.46645 0.998332,0.63257 1.026536,0.86373 0.106763,0.875 -2.041336,0.025 -1.427781,2.49967 1.241488,5.00731 l 2.491488,2.34063 6.185876,-1.71982 c 9.515796,-2.64563 31.831146,-11.66443 31.831146,-12.86464 0,-0.58789 -2.47411,-13.70923 -5.49802,-29.15853 -3.02392,-15.4493 -6.43713,-33.03195 -7.58493,-39.07256 -1.1478,-6.0406 -2.27378,-11.28527 -2.502171,-11.65481 -0.228393,-0.36955 -2.327673,-0.49773 -4.665068,-0.28484 l -4.249809,0.38706 3.957294,-1.00969 c 2.176512,-0.55533 4.483533,-0.80775 5.126714,-0.56094 1.03844,0.39849 3.39667,11.18043 6.36609,29.10614 0.54665,3.3 3.03151,16.1167 5.52191,28.48155 2.49039,12.36485 4.52799,23.21277 4.52799,24.10648 0,1.6586 -14.9421,7.97583 -30.754457,13.0024 -5.916419,1.88076 -7.153071,2.62556 -6.704763,4.03805 0.487491,1.53595 0.213932,1.60521 -2.41738,0.612 -2.584824,-0.97567 -4.758708,-0.51576 -16.873819,3.56978 -13.779926,4.64697 -17.659861,5.45294 -18.637267,3.87146 z m 19.050275,-4.98506 14.162587,-4.77697 -1.834375,-2.43189 c -1.008906,-1.33753 -1.643284,-2.74107 -1.409728,-3.11898 0.233555,-0.3779 -1.85389,-3.41398 -4.638767,-6.74685 l -5.063414,-6.05976 2.004325,-4.5311 c 1.102378,-2.49211 1.651655,-4.53111 1.220614,-4.53111 -0.43104,0 -1.384705,1.82103 -2.119254,4.04674 l -1.335544,4.04674 -2.007135,-2.00714 c -1.103924,-1.10392 -2.074736,-2.92474 -2.15736,-4.04625 -0.08263,-1.12151 0.07065,-1.81824 0.34061,-1.54828 0.269959,0.26996 1.109074,-0.0223 1.864698,-0.64937 1.144916,-0.95019 1.200587,-0.68445 0.334071,1.59466 -0.686424,1.80543 -0.697249,2.62068 -0.03185,2.39888 0.554363,-0.18479 0.982356,-0.56098 0.951092,-0.83598 -0.03126,-0.275 0.594565,-2.04925 1.390731,-3.94277 1.459546,-3.47123 0.575374,-8.05723 -1.55342,-8.05723 -0.494176,0 -0.667815,-0.37326 -0.385865,-0.82946 0.28195,-0.45621 -0.253992,-0.77299 -1.190983,-0.70396 -0.936991,0.069 -1.860495,0.55479 -2.052232,1.07947 -1.00252,2.74333 -2.35001,4.44923 -3.132463,3.96565 -0.484401,-0.29938 -1.175563,-0.0673 -1.535917,0.51579 -0.801016,1.29607 1.400624,4.16246 2.618844,3.40956 0.481382,-0.29751 0.597881,0.18186 0.258888,1.06526 -0.535292,1.39495 -0.961207,1.30536 -3.238545,-0.68122 -1.442207,-1.25807 -0.792633,-0.26998 1.443498,2.19575 2.23613,2.46574 6.51113,7.40816 9.5,10.98316 2.988869,3.575 6.018236,7.11607 6.731926,7.86905 0.713691,0.75297 1.163691,1.42797 1,1.5 -0.16369,0.072 -1.591014,1.25595 -3.17183,2.63095 -2.848481,2.47762 -2.86802,2.47986 -2.182612,0.25 0.610704,-1.98683 0.340898,-2.25 -2.3067,-2.25 -1.649064,0 -8.081941,-2.22245 -14.295281,-4.93877 -6.213341,-2.71633 -11.463433,-4.77233 -11.666871,-4.56889 -0.425769,0.42577 3.663538,18.88511 4.930751,22.25766 0.464982,1.2375 1.64406,2.24407 2.620173,2.23682 0.976113,-0.007 8.147915,-2.16283 15.937338,-4.79016 z m -4.059581,-35.02999 c -0.283266,-0.45834 0.120382,-0.83334 0.896994,-0.83334 0.776612,0 1.18026,0.375 0.896994,0.83334 -0.283265,0.45833 -0.686913,0.83333 -0.896994,0.83333 -0.210081,0 -0.613729,-0.375 -0.896994,-0.83333 z m 8.790469,23.23583 c 1.399121,-0.53689 1.403097,-0.89521 0.0392,-3.53269 -0.834818,-1.61436 -1.948686,-2.66893 -2.475263,-2.34349 -0.526577,0.32544 -0.957412,0.11516 -0.957412,-0.4673 0,-0.58246 -0.701558,-1.05902 -1.559017,-1.05902 -0.857459,0 -1.30424,0.41224 -0.992846,0.91608 0.311394,0.50385 0.135491,2.04886 -0.390896,3.43337 -0.681857,1.79341 -0.612025,2.65751 0.242846,3.00496 1.750169,0.71134 4.312303,0.73156 6.093388,0.0481 z m -1.393475,-1.29485 c 0,-0.67413 -0.519529,-0.9046 -1.154508,-0.51216 -0.744214,0.45995 -0.881795,0.27227 -0.387133,-0.52811 0.54526,-0.88225 1.077221,-0.9318 1.837842,-0.17118 0.588756,0.58876 0.762966,1.37797 0.387132,1.7538 -0.375833,0.37583 -0.683333,0.13178 -0.683333,-0.54235 z m -6.748432,-3.64331 c 0.445401,-2.32997 0.34707,-2.41109 -1.212164,-1 -2.3961,2.16844 -3.171442,1.90992 -2.484195,-0.82829 0.453294,-1.80606 0.123696,-2.48676 -1.39662,-2.88433 -1.094463,-0.28621 -2.568678,-0.01 -3.276033,0.61395 -0.719327,0.63444 -0.646317,0.29146 0.165672,-0.77829 1.123633,-1.48032 1.167831,-2.00818 0.195541,-2.33541 -0.690926,-0.23254 -0.942045,-0.94686 -0.558041,-1.58738 0.469129,-0.78251 0.194929,-0.75734 -0.835779,0.0767 -0.843682,0.68273 -1.853847,0.92144 -2.244811,0.53048 -0.390964,-0.39096 -0.441581,-0.009 -0.112482,0.84846 0.329099,0.85762 -0.09216,2.13239 -0.936137,2.83283 -1.65132,1.37047 -1.104384,3.50354 0.624383,2.4351 0.573488,-0.35443 1.329893,-0.20218 1.680901,0.33833 0.913882,1.40729 6.343499,4.18618 8.27162,4.23344 0.970519,0.0238 1.830141,-0.98903 2.118145,-2.49562 z m 11.379033,-6.98459 c -0.667551,-1.73962 -2.640274,-1.11409 -2.615288,0.82927 0.0092,0.71561 0.402227,0.59227 0.984687,-0.30902 0.811024,-1.25497 0.971876,-1.18691 0.984687,0.41667 0.0084,1.05416 0.295905,1.63607 0.638852,1.29312 0.342946,-0.34294 0.346124,-1.34646 0.0071,-2.23004 z m -24.173306,-2.41065 c 0.316431,-0.512 0.192988,-1.1672 -0.274316,-1.45601 -0.467305,-0.28881 -0.849646,0.13009 -0.849646,0.9309 0,1.68617 0.315337,1.83349 1.123962,0.52511 z m 3.542705,-10.96211 c 0,-0.49116 -0.73865,-1.17646 -1.641444,-1.52289 -1.372472,-0.52667 -1.434339,-0.38034 -0.377555,0.89301 1.440126,1.73524 2.018999,1.91584 2.018999,0.62988 z m 4.524227,-3.21729 c 0.372955,-1.69806 0.24099,-3.52448 -0.293255,-4.05873 -0.628474,-0.62847 -0.871573,-0.0624 -0.688679,1.60377 0.155472,1.41631 -0.135282,2.31681 -0.64612,2.00109 -0.510838,-0.31571 -0.689116,-0.96184 -0.396173,-1.43583 0.292943,-0.47399 0.0058,-1.18743 -0.638197,-1.58541 -0.704626,-0.43548 -0.903715,-0.29142 -0.5,0.3618 1.07006,1.7314 -1.007254,2.35574 -2.370941,0.7126 -0.679663,-0.81895 -1.678241,-1.48899 -2.219062,-1.48899 -0.540821,0 0.526779,1.41882 2.372445,3.15292 1.845665,1.73411 3.232106,3.56756 3.080978,4.07433 -0.151127,0.50678 0.151752,0.6578 0.673064,0.33561 0.521312,-0.32219 1.252985,-1.97511 1.62594,-3.67316 z m -9.524227,-1.26726 c 0,-0.20765 -0.7875,-0.99515 -1.75,-1.75 -1.586056,-1.24387 -1.621426,-1.2085 -0.377555,0.37756 1.306369,1.66575 2.127555,2.19548 2.127555,1.37244 z m -3.5,-21.62244 c -0.339919,-0.55 -0.816476,-1 -1.059017,-1 -0.242541,0 -0.440983,0.45 -0.440983,1 0,0.55 0.476558,1 1.059017,1 0.582459,0 0.780902,-0.45 0.440983,-1 z m -2.710337,-1.49887 c -0.159315,-0.13468 -2.475215,-0.56231 -5.146445,-0.95029 -3.415672,-0.4961 -4.656234,-0.38092 -4.180902,0.38819 0.371734,0.60148 1.091222,0.8369 1.598862,0.52316 0.507641,-0.31374 1.665461,-0.15492 2.572935,0.35293 1.363612,0.76311 6.089249,0.47531 5.15555,-0.31399 z"
         style="fill:#000000;stroke:#000000;stroke-width:4.5999999;stroke-miterlimit:4;stroke-opacity:1;stroke-dasharray:none;filter:url(#filter3916)" />
      <image
         width="128"
         height="128"
         xlink:href="data:image/png;base64,iVBORw0KGgoAAAANSUhEUgAAAIAAAACACAYAAADDPmHLAAAABHNCSVQICAgIfAhkiAAAIABJREFU eJztvXmQHNd5J/j78s6s++qqvtANgDhI4iAhipR1WOZQGo1GOz4nxrYc4YjxhkejmXDMTtjhCJ8R e8z62Fh7PPbMhk+NLEqWQxZ18JBNSqRAAqCIiyTAAwJxo9Hou+7KO7/9IysLWdXVjQYBkLSMX0RH dWW+ly+zvu9993sJ3MEd3MEd3MEd3MEd3MEd3MEd3MEd3ME/FdC7fQP/hCACkAHo3U8VgAJgEUDj 3bqpOwxw6yEgJLYKIAGgAGAUwLgkSZtUVZ0OgiAhCEIuCIKsaZpfBfCneJeYQHo3Bv0BAaF/VmcB jAAYA1AhoinDMDbLsjzFzNlNmzZVDMNI7d69m8bHx5FMJnHmzBn+whe+IHY6nacAvP5uPMQdBrg+ COGsVgAYAHIASgDKAIqCIEyIorhJUZTNmUymlM/n8+VyufjAAw9Io6OjmJ6eRqVSwZYtW0gQBJZl GYIgoFqt4sKFC/jqV7+a6nQ6+Xfr4e4wQEjcSGxHullDKL5TCIk9KoriJlVVpxOJxFZFUfK+72d3 7dpV2rVrl1ypVHDfffdhenoayWSSCoUCS5IEQRBARLBtG67rRsTnZrNJRMSpVAqVSiW3tLRURsho /E4//D8VBogIrCAU10mEM7kAIAMgQ0QjoigWE4lESRCEgizLedd1DV3Xk8VicaxYLGp79uyh7du3 8549e2jz5s1IJpOsqipEUaR2uw1JklhVVVAIBoAgCBAEARKJBAFg13VJEAQkk0mSZZkrlUr+tdde G0NIC/ed/mF+kBhgcBYbuDaDywBGiGhCUZRxRVEmJUnKZbPZ5PT0dKZUKmUymYycTCZJEARs3bqV t2zZgnQ6jVQqRZlMBpqmIZ/Pg+ia3czMvU/HccDMUFUVAOB5HkRRBAAoitLrI8syUqkUBEFAs9nE 9PS0KAjC1iAIdNxhgOuCcE0nx42vCkJLu0JEI5qmlQVBGAdQVFU1XSqVips3b85XKhVx586dmJyc xPT0NHbu3AlVVanRaCCRSEDTNAYAQRAQBAEJgsBExNVqFel0GswMZoYgCBwEAQRBAAAEQcD5fB5B EMBxHEiSxK7rgoggCELULhLvLAgCAWBVVfHggw/SF7/4xbtM00zjXfAE3ssMQAjvLwGgiFBcp7t/ GQBFRVGmVFXdJoriiCzLIxMTE4VyuSzv3buXtmzZwqlUiicmJkhVVRQKBRSLRWiaBtd1SZIkjghf LpfheV6PYNFnhHw+Hyc+APSdj2Y6EUHTNARBAF3XETFBdC6OIAjAzNi+fTtrmlYxTbMEYOY2/ZZr 4r3CAHGXKoFQZE8T0VbDMO7WNO0eIsolk8lUEAQZTdOMcrksj42N0T333IO9e/fi7rvvplQqxY7j ULlchiRJICJiZrRaLRiGQZIksW3bpKoqms0mJZNJlmUZzAxJkqL7AAAmIgRBACIi3/fh+z5kWQbC mdxrF7t/cAgAIMuyOGKG6BgRse/71B2PiIhLpRKlUqlytVodB/AK3mFD8J1mgEhPawgNsQJCHZ1H 6EOXdV3fQkTbdV2vbN++ffTee+9Vtm7dysViEffeey+pqsrJZJJKpRIkSWJN0yAIAgVBANu2oShK z/CKZqYkSRGBIUkSRFFENpvt6fBBvU5EvU8AcBwHmqYNbRf/P5IKRNRnC0T3BFyTFhFTpdNpVCqV 4qVLlzbhXTAEbzUDCLg2m3WERliu+5dGqK+LmqZtArA1mUyOJpPJtCAII4ZhJEqlkrxnzx66++67 +YMf/CCNj4+zYRjsui4kSYIsy9EM4/iPbVkWExESiUREeO7OXhARDMMAujNLEAQGQMzMg2IZ3Zkf JywA1nW9xxTxdhHhI4s/6ud5HkeqpCs1onGj+yAAHBmEO3fuVI4cOXI3MxsA6reEEhvEzTIAIST0 BIBtCIlsACjouj4lSdJmIiqpqprMZrOZfD6fUVVVqVQqoqqq+NjHPoZCoUDT09MYHR1FNpvtzZRI BAMgURR7MwcDIpiZoWkaAX0/PImi2CNKXAQDIMdxoCjKML+7J8pjBI6O9RgiOhYRPn4/tm1D07Rh DEZBEEQGIJiZBEFgz/Owbds20jRtV9cO+EfDAHkAHwbwPkVRfnhkZGSboijZVColbdmyRcpms+Lo 6ChPTEzggQceoImJCaRSKaiq2tOncTEafQqCgPC3I0iSRL7vrzKgYuid8H0foihGhIHv+z2CR22Y mYA+t4yA0CCLG3UIJUTkzw9VFd3jfecBkKIoPYbriqtep4j4QRBAkiQwMyUSCezcuZN1XZ8wTXMK wJkN/fq3CG+XAQQAPyLL8h/m8/nxD37wg8JnP/tZvP/97wcRUSKRYN/32fd9AICqqhzXyV1CcUQ0 z/PiBlb0Q1NkVEV6NAaOE4WZ4xKCmJljBB1mVMVnP63RluLjDB0cwOD5rnTg6FxMSlz78bpuYFdF 0LZt22hiYmJsZWVlC4D9ALwh93xb8HYZgABk9+3bN/7Hf/zHwtTUFAqFQm+GuK4LWZZ7+o+I4DhO T6wTEURRxKCe9H2/dyxO2Bhxr93AwGwcmIl90iXeLt5mQNev23a9sTfSLhon7kpG3yuVCvbt26ef OHFiGmG08h1jAOH6TYaCATiO43g7duzoBUmAULzJsgzf92Hbdti462Z1xTpEUewxQhyiKK5JlOv9 yENm4prXiPe53jhrjbvR84P3FFc1kepRFAVjY2OkadpdCN3gdww3wwD1xcXF+Waz2ZvBQE+HwzRN qKra5/7Ef/hopq+HuEU+bDYNax//HNDrq/oPkxCDzBEzRtcda9g9Xg+RZEskEti9ezc0TRtHaFu9 Y7gZBrjQarXmjx8/DiIiz/N6T9+1A3oiPTocOx3/HgfFj3eJQLHj8Wv0rPPoXCw2Hz/XdyxqFwWJ +h6KmeJ9I0Ovq7P7xo/aXblyBY1Gozd+7J6HPVtv/Pj9EhFKpRKn0+k8wqjnO4a3ywAAMNvpdF55 7LHH4DgOo9+A4kFxFzs/+DnYZvA4D/wNazfsex9ixtiGxo/NcI4wbPyxsTGk0+m+fsMMv3jfiHej E5IkYcuWLZTP5wsIGeAdq9S6GQZoOI5z7MiRI03btsn3ffK8nu3Sc8dioNhsjX/2tRlyfKgEGGg3 7Pu1L/0SZ93xabUcpwg3Ov7g8w9+xtXN5OQkdF2Pspc3Q5cbws0M5AI4OTs7e/bUqVO8tLSEZrO5 rlG0lo7cqBUdGXbDLPn1+l/PUBum4+PHh8UBImzECIz6rTVOdJ2dO3dqCMPj71iI/mY57Xyj0Th1 4MABMgwD6XR6XaNoo4Req30s9Np37EYs8WFYy1iMh5uH3c96feOI+q3XlogwNTVFgiBMIqxneEdw swxQ833/xIEDB3zDMOLxeY4SMjFEGba3ZQN09epQG2Dg3HV18K0cPwoPR893vfGZmbvucV8bQRAw MTHBkiSNIIwFvCO4WQawAZx+5ZVXFlqtFpmmCaAX5x6qA6NwKNbQwUOORxb2hnXw9azwjYwfu/cN jz/ohQwbn4hoIPWMaDxRFImIVIRp8XcEN8sAAYAzy8vLMy+99BIPiv/1dN7N4EZF/o3658PGuBk1 MyzgNUx1KYoCURSjBSPvCG6FtXnFtu3XTp061Revj4c83w7WItpgcmgjxH07xBtmgF6v3VoMv1Fb Zvfu3awoSglhids7glvBAE3HcV47efKkH0/lArc2jBpdN15+tV67+PWHtR0kwEbGvl77QaNxEPH7 iRJl8eOTk5NULpe3ArgXYU3FbcetYAAXwLmjR48umKZ5Q7J2vR80LiIH3bHBdoPXGxbzX6/fRnE9 93NwvGH5iQhRyBy49nzpdBoPPPBAmoj24h3KCdwKBmAAFy9fvnx1fn6+Z+kCq+LlN2yFR/1iFniv 70CelmPDxj2NwWtvaPyBRFJ07RuORA4wCQ+c69lM8WKX7du3I5lMbkZYWHPbcasiTlcdxzl/9OjR eGx+EH3W97Xg2qo2fceJiHzfpyAIYgG5fis8CIK+77GqmzXHH3aPUbQvrqNjEcANewHDHizeN3Zd DNwnTUxMUJeBb9xyfRu4VQxQd1335Pe+972gK876ZkDMV+59Xguv92GVHx4EAYuiyIIg9ELyPNC5 W293bcoOl+/XlQDMHEmb3n1HM38wDjBMAg0Za83x448QM2x5amqK44m1241bxQA2gO9/+9vfrnYL NOMzYnAGrTWLBtuiew0amIXAtZh937meeBget7/u+LFs4HXvfYhkiIu0da8xcDwqDwMRkaqqJAhC CuHah9uOW8UAAYDz8/PzM+fPnwczw/f9YfpyWJRtFbozEUTE13El15v5w6J2feMNfo9L5QG7Za24 wNDxByUerc5E9srFBl3BLVu28NjY2HYAu/AOJIVu5QALlmWtnDt3Dq7r9hWArIX1fOu4FxDTx6v6 DbPMr/d5o+Ovd+8bSUwNu85aHkqhUKBHHnmkAuB9CCuubytupa8pAPjQ5s2b905MTGB5eRmLi4to NptwHCcy1OKh4AhrcQlFK3OGnVvn+xpdVht/MYOyv2FMk6w1/gBT0eD/A9fqHe8as2uOL4oiarUa nnrqKdP3/WcB1IY9zK3CTacdiUhj5ilFlv/5XVOVR/b//df5jcPPQZZEkCDAcjwwiZBVnZPpHHKF IquaRrpucGV0DKOjoyiVSkimUiiPjHA+n+8rDKWwIGMtgzJCn+sWd0MH3Lnok7BaA/TaDIw31KAb 8PXjor/v/uLHujWA1x3/oYcegq7rk47jbAJwYcj4tww3wwACgL0JQ/vV0WL2X3mer/zkP3u/pGkK yaKIhKGxaTlQZRFMBMu2iUDs+cvkmQGsmkPfP3+Mj7ZMtG0Xc0t1JLNF+sAP/zN8+tM/x2NjY1Fk jYYQMpo1EeFpgDGG/cAU9Y36YICRLMsiXdcHOw5KgL7xB9r0jT/QjyLirzU+ugbixMQE5/P5iXq9 fheAgwB83Ca8LRVARJIgCJ+eHhv560LaeDChqYqmSOJSrYmRXIb8IIDreUglDczMLUOWRSSNBOma Ct/3SVNV5DIpJDUVCV2lTZUCskkdmytpvHz0JXzpb/8OK9U6jU9MIFqzPyCJh4rRyJLeqAoY/B6t H4yOR9eLjbPu+HHVEZcifR3677Wvb3RMkiQcOHBAOXXq1CkAh3Ab1wveMAMQICqK/O/Girk/enD3 1iwJBEEg2K6HRsvErm2byPU8lkQRfuDj+BvnkU7qOPb6WTTbHYwUcphdWCYOAm51LLQ6NhVzGUiS CPYDLhezyOgiThw/Ql957OuAIGHHjh09o3IYceNJmO4PPSwSOfAYq2Yv0D8jhxF+gz/RtdqAQUaI 3eaq8aNjzIyTJ0/iyJEjVc/zvg2geaM3sVHcsBcgCML/MjGS/79/6L5txtxSDZViFsVcCvfeNYli Lo1XTnXdwCCAZTtYqjbQsWzYjotqvYVGqw0wYNoOHNdHwAFsx4EkClAVGamEgZVaC7u3bcLOsRT+ 5gt/hZmZGbTbbfi+vyrOH585g95ChLcT9+8+a+//G7lm/N7iHkU88LMeRFHEJz7xCUiSVEFYI3jb cKMMMD41Vvq9j7xvZ0aRJJoaK6GYTWFqtETNtkU7psdQa3RQb5m0VGvA9wPoqgLTcuD7AdWaHQRB WCwyM79CjXYHF68ugZkRMANEFAQ+ZdMJpJMGmm0TjWaH/uov/4J+73d/hxYXF6nLBL2ybCDU3URE nudF6/F7YhZYZW33fQ6K9tj5eIn3qoKQAT0z2C+y+OPM2dMm3dj/Wt4NAcDdd99NiUSijHDbuRsW QxvFjagAUhX5s++7e/PPOK5HhWwSU+MlWLaLtmlTuZiBKAowdIUKmRQ4YDiej+VaC54fwLQdUhUZ ggBiBhZX6hBIQKWYIVmWQAxcnF2EKIpQZBGeH9DJty7CYplWZi9AcVbw9P4Xce+u3Uin033EUxSF mHuLTfoIGJMIQ91AHl6902t3PTdwoG3fuQFpFDHl0L6DkGWZvvrVr8qzs7PfQ7hxxG2prrkRCVBJ JbR/O1JIs6pI3OiYPDO3AlWRUW20OQiYJVFEpZiD5/vsBwF8P4AiSxBFAePlPOfSCZiWy4VMEq7r MSNc+6dIIlbqLQBgy3KYGXA9DzPzVZgdiwtJmScrBU64i/zL/+k/4uDBg2xZFkcqIYrXRzdKA+v1 u4jH8QGAHccZfMbedaK+vu+vykYO5iJooCZx4P++bCgNiQoOuw4R4UMf+pCOcNm9thZRbhYbZgBB EP7lnm1T2wmEWrNDhqbSpauLOHdpDsVcik6dv0Ku58GyHciyRL4fQJZEOJ4HZsB1fcpnkvB8n2YX VmA7Hnmuh3RChyCIGC3l4LgeSZJIfhCg2TbRtj3YZot8P6COZVOlmKPtZQ2//3/9Nj377LPUbrfR XYtAAzO/n/L9GcqeGxZf0hadw8CMFEUxLv7jU3xwvFU1gQOxi+uui4irGVEU8dGPfhSyLO/BbVwt tKE4AAFKPp34qW1TZVIVhVsdE6osYWqsRABgux62TJShyBK1OhYsx4WmyKE1DFA+k4TrebBdl/KZ BGYXayAieAGT47pgMHw/wHKtiXIxC9fz6cKVRTiuT1vGDIiSiCBgKLKEfDqJ92/X8Ie//19ARPSh D30IyWSytydQ/La7QaRBXR2djBr0P2t/XGGVOhlsN9A3fr1V+wMMUSdDxX+kJu655x7ouj7huu5t CwhtSAIwYIiiMJE0NG53LDCDry7W2HE9vnh1iTVZ4lqjzR3L4Y5p4+U3z3Mxl2LLdqCrCmuKxAA4 CJhtx2MOGBOVPEuiwK4XIAhCr0FRJBYFYkkQ+OzMAmRJ4Hza4KnRIo8UMiwQsecHMDSV75nI8v/z u/+Fjx8/zu12mz3Pi4vlwQTU4B+wOqUbP7aqLw1PB/f9bXT8eCJpMD8VGwuVSgXlcnkcwORGaXWj 2KgRWFFk6T/LkmgwgLnlGhgM03Jg2S78IEC9ZWJmfhlJQ6NM0sD8Sh2qIiOfTcG0HDRaHRAIHdsB EVEhm4KhqdBVmQBCs2Oi2mgjldDRMR0cfeMCbR4rYGq0iNFSDh3ThiAKsGwHATMMTYEi+Hjimf24 f9/7kE6ne1JgDSNslUE2+P9ACHitgFIfBsR83yxfKw4x0GaVuoobrd/61rfkc+fOHQJwFLfBENwo A+zWFfmz1Wabzl9ZxEqthYXlBpaqTTTbHVTrbXQsOySKLFG91YHlOCAQJFFEJmXAtBykkjpabQuy JJKmyBBFAZIokixLWKo2QUQYG8nhjbMzmF2s010TI5gcLaJtWpBEEbbtwnY8mLaDRstEuZBFbWUR x19/C/v27YOu69H2a32bMMTR9Rb6rPb4+RjRVunxYQwRJ3J3d9Drcs3AtYeOD4R7Gb366qt05MiR VxCGhG95RHBDNoAkSQ+U8hlhy/gIFEVCs20ioWsgApptC8yMaqMF1/XRbJsIAsYbZ2ewfXoUiiyB CMikDDiuh2wqgbZpQ5ZEyN3Qq+N6sCwb4+UCLNvF5bkV3L15FFNjJSiSCBZFSKIIl30s11sYyafh ej5aHQu7tk1h/5FX8Oijj+IXf/EXIQgCuvH8Vc8REXEwhRtP7MSDN9GxtYg/iCFG5VAMJJJW3UcE QRBQLpchCMIm3/d1AO0NDXAD2IheEZOG9kMfvG8HbZsepenxEoq5NGmqTNHsVhWZJipFyqYNpJMG koZGWzeV8dbFqzj51mXIkgjfD4hAcD2PJCn01z3fRzaVgOt5sBwXrudT27SIgwCbx0sYG8mDATI0 lSRJIGYmQSD4fkCqLBEzo2Pa+OB92+iFZ56g/fv3o9lswnXdVcYdYhMv+h6PzgG9VPVg30inxINP PWs9Ziz2GYBDfsdVgah4CDt+neiYLMuYmJiAJEnTuE0RwesyABEpmYQ+umm0wOmEzgAhoatMRKyp CnRVAYVrAXn79BhURYKhKZxJGhgvFzC/XMfp2SbmlxtMBHQshzVFhut5nNBVzC1VsVRtolLKgZl5 brHG4+U8irkU2paNpK4xutHUC7MLDGbkM0k2NJVt10Mpn0azbfGW0Sz/t//6/+L06dNotVrsuu7g jBr0v4emeYccHzQEh7WLzg+Ote74Q6qd4rEGCIIQqbZRAFO4DRHB6zIAM2vJhJbVFBmW7ZDjuDAt h9JJnTIpA6mkhvFynkzLpZffPI9Wx8LcUo2CgLF9ahST5TxOv/UW5lsBuYKGlKGR4/oIAqYr8yuQ RBHNlolsKgFFlujqUo1GSzmoigxRENA2LVJliaqNNs3OV2mp2sJKvUUkgHLpBM7PLCCfSZAfMGWU AH/915/H4uIimaY5GHMfGgoeAA0pyKSBPwz83+e/r3ftwc9BCRS/bqSKxsfHaXJychTAZtyGxSIb UQGaoSnpRtsk2/WQyyQBAkzLwcJyDTNzK3jrwlUQAbqqoNW2MF4pYGwkB0WWUC5mMTVWxOLVy1hs +UhP7ETAjOVaE7brYXZhBcV8CgvLdSzWGjA0BeMjeUjdkHA2ncBKvQVNkeEHAWzXRSqhASBoqoJi LoWVRgtjI3ns3TGFU68cxsGDB9FoNKJKpKEPtVYyZ9iOZNE11kribMQ+GNZ2I7ZFMpnEtm3bVFEU t+E2lIhthKN2l3KZ/zBZLkiiKKBt2jg/sxBG81wPrucDBPJ9H+ViFgldo0arA1kKCcgMKJKEgJlO nz6D+aUq3ffQR1BbmkOnYyGfSZLnBUgYKq7Mr6BSykFVJIiCSJIkwnZdEohw9vI8yoUsEoaGkUKG unYF0ikDvhdQvdVBEAQYL2Xo+e+9jPu6rqGiKIM5gj7rHgOzdVjsPlrFM2S/o2HfV7mBA8dX9V2D CQgAHMeh2dlZHDx4sOa67jO4xVvKX08CUCph/PiW8ZIqSyKXi1n2gwCaKrPtenx1sYaF5TqShsbj 5QIvVZvoWDYCZm6bNpaqTUiiAEkSMFku8JbJEZDT5C9+8UuYvOf9vHXHTqQSGkRRgOv6MHSVK8Us O64Hx/UgECEImE3bYdtxeX65xvdsHUerYzMRsSxJsG0XDOZ8JsWjpTyShgayqvzkk0+iVqvBtu0o K7dKBw/54VfZAFEAaDAQFP0fWwexKhfRu+hAlXC8zZB8Rd99SZLE9957L4hoBLfBELweA6QMTfnY 6EgOAQd09tI8vXXxKlodi5iZpsaKeN+9W5BLJ6jdsUJTmYBCJkmZpIFKMYuZ+RX4AWO53qR0Qkc6 aVApreHRz3+OGp4KTlSQTRlodSxsmRihtmnRSCELBsNxPWiKTIamUiqhUymXpo5pYySfJj8IwtyD 48CyXPJ9n0zLhiiKeODeLfSdv38Cb775ZuQVAGvo4AGEj7A6i7emDRCVrSE2k4eEiFeNv0agiRDa Ib0DoijSvn37KJfLlRC+FOOWGoLXY4BcPpOYFIhIUxV4vg/bDV+sUClmwQxU621YtgsGkMuEeXzb CaODb567grDqJwzayLIMTZWRSmjYsamMp5/8Br77vZehjdyFVEJDEDAcx8P8cg0pQ0PHtLFYbeDc zDwAYHK0AEWWUW92oEgSiATIkgTTdiBJImqNNogAURCwZ0sJX33sq1haWsIQg3BdDDHONtzvZuG6 LlZWVnoMKAgCMpkMpqamSgDGcYsNwesxQFkUhHwuk0SrbaHZNrF1YgSjpRwSugpNlSGK4WxJ6Cos 20WzbSKXTuDE6UtYqjZhaAoCBtqWDdNyYFouUgkd+WwS2zaVYdbm8fm/+Tsopa24slDFSCGDVseG 7XpQVRmjpTw6lo3J0QJURYHjeQg4gGFoAAJ4ng9RFLCwUkfC0KDIMhRZwo7NE7j4/ZM4ceLEdQ3C QQzUEfSObZTAN8IIg21FUUSpVOobT5IkbNq0SUPoCt7SzSOuxwATuiqLrY6FYi6NkUIGK/U2TNtB 0tCQSycwUS5gtJSF5/kICz4EHHrlNGzHxUQ5LPHWFRm1egsdyw6liONCVxXomoJdd02ilJTx5Lf+ AXs/8kmsNEwUskm0OxayqSRURcJkpQhDVcNsYCYFRZbQbJnIpVMQRQG6poCIUMymAA4gCAQw4767 RvHE49/E0tISOp1OnxQYJHB0LP45eGy9UPBaxyJCDgtJD+sf32Mg/nqaD3zgAxBF8R7c4iVj6zKA INCmaqPN9WYbQRCg3uxAU2UUsymUC1kosoRaq4MLVxYxXs5DVWScOjcDPwgwPVZCwIyJcrjzaSmf wVK1AU0Nt4lPJw0Us2k0WyYyKR2bR1L4+mOPYe9HfxQLtU5YG1hvwrRc7Ng8AUWRIEsi6o02CtkM ZEmEFwQgAIEfIKGpWKw2kEwY8LwwJL15ooxLZ97E66+/gUaj0TMIIwKsRZT497Vm80YIHx0blpS6 nvs3EKHE1q1bYRjGFMISsVuGdRlAEsXNm0YLSCV0djyPN4+XeMtkGabt8GK1EaVmUcyl+OpilQ+9 8n0AhEohy7IsQZElMAPppA7bcVmSRDiOywldxfxyjQ1NAQMIAkalmEVG9vjLX/w873j/I1huu2Ew SCS2HYdTCYNtx+V8Lo1mq82CKLCmyAgY0DWVJUnkTWNlNNsmspkkZ1IGHMfF/dvG8MzTf4+VlRW2 LKtvzeIwL4C572URwBrpYKy2+vsig0OkSDyVvOb48b0NmMM1lq7r8uTkJBKJxBhucY3gegwgioIw nsukSFNk0hSZGi2TTMuGIklkWjblM0m0OhbqzQ69cXaGDE3F9EQJCUOjIOAwC9hN3168ukgpQ0PC 0GhytIhM0qCAGdmUgVI+g0xSR8LQKKcG9JUvfR5NymC+4cJxXFquNun0hStUzGcoCHxomkqmaZPV Nf4836dyIUvNdgeZpAFmkCgIkCQRO7aMY+b893HmzBnq2gJRDH5YMUgvl7yWFzAsZj9YERRPSccv H312t84fGi0cXDpHRCQIAqXTacrn8xnc4p1E17uQpCpSNqEpDBC3OhZeZiQLAAAeQElEQVQv1Zrc 7tiQJJHzmRQLAsF1PZybmedCNsXv37UVSV1Ds22yqkiYW6qFBtpyA57n82gpj2IuzTNzK1iutfjs pTlYtguBwrUFWyfLXG20eCSt4tXDByFmJ/DaxRU2HYczSYMty2EiAZIocqVU4FbHRMe0oMoSdyyb s+kkJFmGJInhnoTMEAUB906PYP/+/Vyr1WCaZvQii1WyPSryGMjS9RVzxKVCvOvg9/g1BuMA3bel bDgXIYoiJ5NJ3rFjh4qQAW7ZTqLrMYAiS1L2+xeu4s1zM9Tq2DQ+kqdMKoFsKkGu59Gp87P01qWr VC5mabSUIz8IaH6pjvGRPFUbbdoxNYZ6s0MLK3XKZ1LUbJtk2y6pigRREqiUT5MoEkr5NNqWg45l k6YopGsK3TVRwEvf/Rbtev8Pk68VKWCmheU61Rtt6LpOnu8RQCSKIuWzKfI8j5gDAjMkUSTX80lT FAiCSHt2bKZTr71MMzMz1G63yXXdVbuKdNE305lX7VQ+GAfo+xuINq65P0AsLjB0/HhJWpShVBSF 7rnnHoGIxnELdxJdjwFkgLVCNkUJPdz33w8CVBstLKzUsVhtYn6pxtNjI5xNJaAqEpaqTR4v57FS b6GQTXKt1cFyrcmaInMmZSCT1NnzfdSbHUxVipAliVMJHbIkIpdOwNBUJA0VkihyIZvCvVsn+Ftf +xI2bbsXSE9iYaUOUSQsLC0jYEYQMBfzaW51LIyVSyAitrovqVAUiRkMz/fY9zy+q5LGoUOHuF6v x43Btfy13v4Ew3L3se99M7an3Pt1/ND9AeLtVxGl+2bSqAkzQ9d17N27lzVN24lb+E6B9RhAdz0/ a4clXFiut9BomXC98H13lWIWH963E5oqY2G5jquLNSR0FabloGNayKUT4aog04GhK8imDCiyjMlK EZqqoNWxEDKFgXbHAgDML9exVGtB7u6YkcskUcmn8dTf/TUyxQpykzuwsFyDrqlYqTVRyqchSxKK +Uz4mhpJgiIrcFwXoiBCkSQ0Wx1YtoN7t07g8KHncfnyZbRaLXiet66FP1gIciMJn0Gm2WhBSRxR Uir24kls374duq5PANh0QxdbB+sxQK6US+cZgKrIIAIs2wEDELq+d63Rhu8HsLp+fa3Zgef72DRW wlK1hdmFKnKZBHRNharISBgarswvY/N4CaIooNky4QcBMukEEroKAlDKpSCKhGwqAcfxkEpoSBsa vvXVR+GxCH1ka1gXGPhQFBW248F2XJAgYKXWgCgJcBwPkiQCIIiCgFwuC9OykRAcPPfcc6jX6zcc HRxEvFRs8Niwc8OYbS2mGLxmlIwaHR2lqampcQDTuEURwfUYIKUqsj5ezrOmyCwKAs/Mr7Btu2i3 bb58dYnnlmtwPR87pse42TZZU2UoioRG2+TLc0vwfB/5TBLphA5JEpk5QD6b5HZYTMoMRqtjIZ0w YNkuRkfyPFEucCmXgarIYA6Q0FWeGitxJmnw2RMvcsfxYYzdzZbt8tJKFaJAkEWRNVXldDKBZrON dDrJruvB9X3k81lwEMDzfVYVCYeef44vXryIbiXxqg2t0RW7sdKwPiPwGo36KDpoPDKwanfwVcmo IUzRVxASPyYIAudyOR4ZGUmJongXbpEdsB4XaUT0M6osJV3PJwbI9X1SFAkAk66qVClloesqavUW CRS+vjWXSpDnB3T20jwqYY0/cukECtkUWbYLRZap0TKhqwqNFLIwdJU0VYEcShUSRYF8PwADpKly uMgkCGgkn6Faq0PLV2fgiQaNTu+guUtnETAjnUpQs9kiVQvdTBCRJIqwLSckAgELS1UiEBKqQJ6U wObNm0nXdXQ3ZYqeOV6QsZbBF52Ou4tDE0XrpYN936dYImnN8aNyNM/zSBAEunjxIr344ouz3VXD neuTeH2sJwGutE3n5UgFCERh+FZVMJLPIOAAjaYJWRSRTOhQFAmGpuLczDzePDeDQjaJlKFhz/ZN KGZTqNZb0FQZruchndBQyqdhOy46poN6sw3b9Xo7g3QDRyAA6YSO5WoTqipjaqwIRZbw/ZdfxKm3 zmL6/h+B6zNa7Q4EUYTjOBBFEa1WB62OCdfzIIoCVlbqOH1xDlNjJezZMY3XTp7A8vIyOp1Ony0Q F+EbtQHWUwGDxxuNRq/PsMKTQYkQV1HRb7Np0yYWRXEctygkvB4DmK2O+cevn7lsXllY4bYV5uBt x4XrepxLJzn0CtrQFJkbbZMbrQ7mlxtgZh4r5VDMpcLMnSyhY9pcb3Vg2S5rqoJ6s8NjI3moioTD J89gYbmOWqPNHdPu1RUUc2ms1FtczKV4YbnOmizz9Fho7c++dYIPHDiEze/7OFqWzxwEnE6lML+4 jETCYMcN7YB2x0LHsuG4LicMDbIs8czFc5ifn+dWqwXHceLVwqviALFjG1YBA95Azyvovl6vbwey wZgDM0ceQMQkPRVARPzAAw9AluUsblFtwPUiSs/Xmp1v+UEA0wojemH4lbFUa6DZNpFJ6vCDAIVM EnPLdfi+j83jI3B9H7bjwfMDLFebSCZ01FsmJsoFMAeQJBEr9SaWqk1snSyjmEuHs73WxPcvzGKl 3oLjhQZe0ghfw94ybbi+j4f2bkfS0GAuX8JLLx5CYduDWKybME0TuUwKtXodlmUjm0nDcRzMr9Sx Y3oMqWQCr5++gHxCxrlz59But3tZwmEzOf7/WrN62LH1LP5hOYEYA4KIVkmHeEJpbGwMW7ZsuWXL xq/HAG3X8/+PN89deS2hq7Ash1odC822RYsrDQoCxmK1AQBUrbep2TYxOpKLSirQaHUgCIRkQgcB lDI01JttanUcVIpZunBlEZIkolzIQlUkNDsmzS5Wad89m5HPJDE7vwKA6PLcCjmuHy0ShSqLdNem CqUMDcuX3sTxY0dpcs8P09XlBkzLhuf5JEsSbMeBLMtwXQ+ZVII8z4XtuORYJp799j/Q0tISuvmB VeXdMeL0gjOxH7xvf4J4vy7B+myAYQUh8fYx4veNH7WL9D8Rkaqq2LFjRx6hK3jTEcHruRIMoGo5 7vErCys7BIEmDV1DwAGZlgPP95EwNMwuVunClUVk0wkkDY10VYHWdfsMTYEoElzXJz/w0bZsKhcy mJlbRsu0MDVaJEEgtNoWHNcHgWDaDkr5DImSgHwmRXZXTJu2g3RSh6FrdGV+BdPjI3A9D4tXZ6hh +tj14A9j4dJb5HkeUgkdBMab58IFKvlsmhaWqri6WKNcOoFmvQpBS2H79u2k6zpkWe5LxcaIONSg G0bcfrvtugyANb4PHqf4FvmiKOLkyZPC888/fwbACwh3aX3b2IgvyQCWXM8/uFxvtWqNTjmV0LK5 dIJGihlU622s1FrIpHRIYrgAhAEuZJO9HUJEUUQhm0JUV+B5Pi1Vm7x1ooKrSzXKJA24no+3Ll7l LRNllPIZjOQzvWLM5VoLxVwauqZg02gRF2fD9HPbtFEp5tAyLbSr87h4dQXv/8jHafnKWa41WlBl CX4QQNdUCALh1PkrqLfaGMlnaMfmMf7u4ZN46AMfoOit5qIoRhHAXkJnrSBOnLiDhKaBer81EkMc +7/3W8fGW9UpCAK0221Uq1U89dRTza4ncFP7CG6UAQIAHWa80bHsQ5fmli9cnltJLK40cqoiyVsm RmDaLgFAPpskgUDNjgXLdtEyrTDo07FIEkXMLdVI1xRIokiW4yKXTpDnBZiZX0Ypn6Zm26TRYg7L 9SYZmoq5pRqNlfJUbbRotJij5VoT7Y5FhqYSwCACErpGnheQ3VzGfNWkvQ99hFoLF2FaNmRZQjad xNJKgy7PLWN6rEQBgG3TY3Ty1FlMTN9FIyMjMAwDkiT1snFEtFYsHwP/D34fFuNH/HwkYYYQui+f MOBikmVZJMsyJEnCl770Jcc0zecBXN4ADdfERqNJjHCvOgdhWfJ5z/dfbLTNV2cXa81Lc8sZRZZS qiwKoiAyEZGmKqSHIV9arrXIDKuBiIigSDLapo18Jkm246EVZvQwks+iXMxCEARKGhoWVhokEoXR wpTRCyHLkkiqKoc+P4g4YCR0FQGDZi6dx9T2XShPbafG/EXUm20qF7J0/vIcDF0lXVMwXi7AdX14 nkt1R8C2bduQTCahaRoG9u+5poiHq4A4wQbVxTCG6LseDREN0emI+SKJ4Pt+b6e0TqeDxx9/XF1c XHwRwOu4iVXDNxJOjDOBiXDrslkArziu9+JitXF2udaSLcfNeL6vNNtWr/QLAHLpJOYWa90FHxK5 vs+aIgMA1ZptTHXdu6ShRf4R+X7AhWwKiiIhk0piZm4JI/k0NFXGcrWFfCYF07J7toFAQMdyaH7m Im+5534k8qNozF+AqkhYrrewabQIEGBoCgHE6aSBl09dovvuvx/pdBqGYXD0lnP0i+kbQa/fIH0H xPtQFRDbZ5mCIOD4moQgCHo7i3/nO99Rzp49ewrAS12avC3caDw5YgIXgIUwEtUCsAzgrOf736u3 OkcXluuzS7VWe6XRMi3b0RVZUizXpUImhUzaQDKhUbgkzEIyodPWyTKCIEA+G64QWqk3cWluiTJJ A5IsIZVMwHbCVUmKLKPZNqHIMhrtDhQ5nBWWFW47N5JLU7Vex+uvncRHP/4pOKTgwuk3kDQ0GLoG Q1MhSSI12x1kUwaOvHaOdu+9H4VCAclkEoqirKmDN4i1pEb8WO+E53kUzW6gb2VST5pEtkh0TpZl nDhxgl599dWa67rP4iYWi7zdhEKcEWyEEqHdvZGrAN4MguCI43rfqzU7x68u1ZaXai3Fsp207/li LpWAabso5lLIJA1aqNbhBYxGswPfDzC3XIMkCrR98wQc10UQMASBkNB12I6DdsdCKqHDtBygW3LW aJnQNSVUD7IE9lzsP3AA//pnfh4zVxcxN3MRxVwajutB7O5DlDR0nJ+Zo8rkZoyOjiKdTkfGYM8G WM+nXwNrMkD0nZl7K4M9z6P429a6+wl3m6+ORzAzPM/DpUuX8NRTT7V83/82gLkbvckIN5tRigxE D6EYikuFBoAqgFlmnHBd72C10T5xZbHWPnNpPg9wIp3UYdku1ZsdjI3ku2nlKogI99+9hS5fXcR4 pQQOfBh6uCyu3TGRTiVgOw5EgZAwuusJXBe6pmKp1qSkoYGIoAmMZ58/iP/4n38Vz79wAAmFIRBB kkQKM4YSFqt1ShZGMTk5iUwmA13XcenSJZw9c5bGxsfWZIDrWPir0N35PNY9zPLFN5SIexQA4kzS CwUD6KmDRx99tOG67nO4if2DbuUig0gqeAgZIS4VGgBWAFxi5pcd15tbaXTuCZR08vT5GfJcB0u1 BsZG8pRJJiiTNHDp6hLde9cmgEACEQlE1Gh1KJ00EPgBiYJAuq5C11RYtkPNVvjGskI2TZGxp6sK BM/CmYtX8LFP/QQdfvEgDFUiWRIRcLhBVbNlkZgoYHp6GtlslgRBoM985t+hXC7Tnj17Imv9bXsB saBSn3XfZ0VeI3zfdaJ23TeKUrTlPlFYJ/i1r30tWFlZeQ7AKbw9e+W2bDwUSQQToSSoAVhCqBou AzgLYD8zv7Ft2zb86q/9JnY9+FFcqdr49osnuNZss64p2Hf3FviBD9t2WZYV9nyfFUlk13UhSRLr msrJRAKyJMOyXV6qNdnzAxABQnfvgnQqiUIuDX/lPI4cfpEf/tGfxexSnf0gQCZpcBAwVEVEqxW+ 08CyLP7c5z7HZ8+exSOPPIJuujiq1F2zKniN7wD6JMRgLWKvTfTK3eg6UYQwtqaRmTnKB8BxHPZ9 n7PZbA7h28bfNh1v92vKI/ckbi+0Adiu6x5YWVn56AMPPCDdf//9+OQnP4nDhw/TgRdewOvnXuf7 tk9g9/YpWLZNrutC11UYugbHdZk5oADhi6ht10Gj3SFRFJBNJziV0GHZDqmywo7ropBLw3VcnDv/ KnUmN/GDj/wEHXv2a9i6qUK6prAoCOg4DlzXxVNPPUW/97u/gz/4w//K2WwWjuNAkiQa2EWccW2W Dlry8e+Dr58jURQ58v+DIIi2j4eu91Z9k+/7kCSJW60WEokEPM8jURQhCAJarRZeeOEF/vKXv0z7 9+8/d/Xq1TMIJ9bbmv3AO/R2yhjirmSq3W5/+Bd+4RcyExMTlM/nsWPHDjz40EOYnN6KUxfn6IXD r0KkgLKpBNKpBKI3kiuqSmI3/dtotmFaDiV0FePlAkzLppn5FRAAQ1chkADP8zFRKdKBAwex96GP 0NXFGsz6IhK6ipZpkYlwT6H//if/De974AE4joNisUj5fB6iKNKQ198MGnqD6uDaA3NcGFwLFcd1 fTz1LIpiVKRCXf+fZmZm+NFHH6Vf+qVfsv/sz/7s9PHjx/+2Vqv9f0EQ/AXCbWTf9uZRt1sCrAUf wJumaZ4/efLk1LZt22AYBjKZDHK5HEZHR7Fv3z6cO3cOzz//PB5/8QjGsxq2T1UwXs6HPyoRFFlB o7WIfCaFbDoJVVNx5tJVBBxAEAUIggDHcaEoMogIH9yzGX/36F/gf/u1/x1f+5v/iY5ZRa3RxrJP +Ku//HO02yZeevFFiKKEYrHUtzv5Whgw7oaeW8uaHwwnR2PV63V4nocDBw7gb//2b/mFF15YWFpa es113e8gfH/ASYSq9aa3jXunJUAcnud5O8fGxj7wsY99jFRVhaIorOs6NE1DOp2mkZER7Nq1C3vv 2wdX0HD45Fs4+eYZSAIjmzRgOw50TYWmKpAkEaZpw3E9andsHi8XkDAMhCJVBAFw/QCj+QS+s/8g /dz/+h/4u999AZevXKWXX/s+ms0mCMw/9uM/iV/+5V9GMpkkSZKgKApiwaEeBr2AeJAnnguI94u9 W7nXBjF3z3VdPn78OA4ePEi/8iu/4nzuc59769ixY19ttVp/HgTBnwN4GqENZeImxH7fc9yKi7xN SAD+7f333/8Hzz33XLJbLBGJeQ6CgBzHYcuyqNVqodFoYGlpCSdOnOCDLzxPjaUr2LWlzFsnKlAV mdqmBc/3udZoEwCMFHKsKhIc14PjuLAdh1RFZlVRaKlax5Kfxocf/jj/9z/8fXr91GmQKOPHf+In 8dBDD0GSJP7ABz5AxWKRk8kkRbuMdMG4Fs8fZgMQgF7hR5wxmJnr9TqlUqnoFfI8Pz9PS0tLOHPm DD/22GM4duxYa2Zm5tVWq/U0gAMIZ3sVt+m1Me8mAwDAh7PZ7J8+8cQTd//QD/1Q3HVidH8w3/fJ dV3Yto12u41ms8nVapXOnDmDgwcP8sy5U5gqJWismIXtOCyLIomSiJFCjj3fRxD4qDVaMDSVPN/n ZMKgRqsN2/FhGROcLZTob77wPzFzdb6rgyU8/PDD/Fu//dtUqVQ4kUiQLMt91jxiBI/l8dGd1eT7 fvRyqDio254iZj569Cjv378fzz//fHtmZuaibduvOo7zAkIxfxZhTOWWzPS18G7ZABHOOo7z+tNP P33Pnj17YBjGqvRqN1gCVVWh6zrS6TTy+TxGRkZwzz33YGZmBgcOHMCzhw+hkhKxZbKCzaMliJIE coFOJ1QTCUPH4nINluTAUBWcOnseLesSRrbeh5/+uZ/H5z//eXz84x/Hgw8+iJ07dyKZTCKyvteL Bg6K+Pj9R7Pfsixomgbf97G0tISnn36av/jFL+LIkSNnWq3WQc/zvgfgNQBnEMZLbts7ggbxbjPA SqfTOfryyy//a1VVVyXHIhEaXycvyzI0TUMikUAmk0GxWMSWLVvw8MMPY//zz+PI8aM4fuoSdkyN YPv0JJgAQ9egqCqSCR3fPzeD7x59Ey3bR+A6MM4t4tOf/jQ++tGPot1uo1Ao9PR+fLvZwa1nB1y8 VfcdIdrxo9Vq8f79+/GNb3zDeeGFF0612+3vMPMzAI4hJLo39GK3Ge82A7gAri4uLjYty0onk8ne iWHMEP0JggBJkqCqao8RcrkcpqensfjJT+LUqVM4fPgwvvLdE1DggsCoNztomg60ZBp7H/wwjh87 isBX8IlPfAJPPvkkfvRHfxRHjx7Fq6++iomJCYii2GOCYcSOu27Dcgau6+LNN9/EN7/5Tbz00kve sWPHLq6srJxzXfcQgOcAnABQx20W8dfDu80AAYD5S5cuVVutVjqZTPas59hMi1fb9o7FGSHyHpLJ JLLZLMrlMt93331YWlrC/Pw8Go0mPM9lURShaRofOXyEVpYW+Cd+6t/gQx/6ECqVCr7+9a/j4Ycf 5meffRbT09O9bVqilGz8vjhE18104Hkei6KITqeDarWKZ555hr/85S8Hr7766hXTNE87jvNdhLt9 fx/AAm6hFX+zeLcZAAAuNxqNmWPHjk098sgjpGkagL7NE/qCLpGBGP1PRJAkibozlnVdRyqVonw+ zyMjI9i0aRPa7TYsyyLP83hxcZH2f/dZfPxf/Ev62U9/mhVFwdTUFCRJwqOPPkoPPfQQ/vRP/5RL pRL27dsXvTEkzpTsui4pigLXdblWq2F2dhZPPvkkDh06xEeOHLna6XTe6lbrHEOo22cR5kfeE0SP 473AAHOWZb125MiRD37qU58C0F9PH7emY2K4L9Yed7lUVYUsy6xpGlKpFBzHgW3bcF2XbcfBo48+ yvfu3kO/+Zu/xaqqwvd9yLKMn/7pn8bKygo/+eST2L17N/7oj/4Iv/7rv46dO3eyJEmI1JPneZif n+eFhQV85zvfwTPPPOO88sorF9rt9jnbtl9CSPCTAK7gHbDibxbvBQZoeZ538uTJk47jOGqUG+/m xYft5Rd3w/oQbdcuiiJ1DUZWVZUMwwAz4xvf+AYunD+PP/+Lv8DIyAjZvaXkCmRZxmc/+1mam5vD Sy+9hEQigT/5kz+h3/iN38D4+DguXbrEr7/+Oh5//HEcOHCgevHixXPtdvs1Zn4ZIdHPIhTvNm7T G75uB97tOAAQ3sO/2Lx58/84cODAdKkUloZ16+DZtu2+ggkM+OGxIMuqc8A1qREEAT3xxOO8d+99 NDY2Bsdx4Ps+C4JAkdXveR5Onz6N3/qt3+Jjx46Rqqr84IMPotls0vnz563z58+/FQTBIcdxXkQ4 yy8hNOQ8vMdn+lp4L0gABnBpeXl5/tSpU1Ojo6PkOE5vSfQA8XuIG4rrxesjW0IURfzYj/14r6Im 8vEB9OrsPM/rbc169OjRwPM8euKJJ9g0ze8FQfD3CCNzJ3AbI3PvNN4LDAAA86Zpnjp48OBDP/Ij P9L35o2oRGo9v3tYm7XKuSLr/erVq0in07AsC7Ozs3z48GH6h3/4h87x48cvLiwsnAqC4EIqlfqw pmnvC4IgZ5rmiwgzb038gBAfeO8wQMN13ZcPHjz4s77vy4Ig9CRAvDI2hr4vUaFE3EiMiN8Ny4KZ e9vELS8v0xtvvMEvvPACnnvuufprr712znXdk0EQHEYo2s8B6DSbzQlVVT+j6/rPe573713X/TWE qewAPyBM8F5hABfAmZdffnl2aWlpulKp9Hx/WZYHDcGhBRkxGyD63ltlU6vVsLy8jBdffBGPP/54 cOLEiaXZ2dnLnU7nGDMfRSjWzyNMsUZhWBGAbdv27/m+vyCK4n8C8AiAr3TbBPhHqvfjeK8wACP0 lavNZnOqXC6v2TAWjAk7DonQua6LWq2GV199FYcOHcLRo0fbb7zxxqXLly+f9X3/KIA3AZxGWKLW wPAwrI/Qd1/2PO/PgiBYFEWx5vu+DEDu9vlHLwXeKwwAALVOp1OrVqvk+z5HNfA8OP37Z3rvMADY to0zZ87wk08+iW984xvt11577Wyn03klCILvIVxBcx7hGoaNumo+wqidHwTBlxBuy/KPxsXbCN5T DGDb9rnPf/7zD+/evRsAekuh1kvABEGATqeDU6dO4Stf+Qq++c1vXrl48eIrtm1/G8BxAG/hWobt 7YjsACHDRKVswk1c6z2H9xIDtF3Xff3QoUNuEARSjPhRgQWAXm6ALMvCpUuX+LHHHsPXvva1uTfe eGPGcZzDnuftRxh3n0VIsFtBKMY1kR8t6/qBYID3EgjApyqVyoU33ngjCIKAfd8PfN9n3/c5CAJ2 HIevXLkS/OVf/iX/1E/9VL1UKr0E4A8A/AyAPQByeHfL3O7gJjEhiuIXPvOZzwRzc3Ncr9eDVqsV vPXWW8Hv/M7vBJ/61Ke88fHxt1RV/QqAfw/gfgBZ3CH628Z7IRQchwjgn2cymf9z165d+zZt2oSL Fy+2Tpw4cdnzvNOWZR0GEMXeF3ATq2LvIMR7jQEAQAPwcSL6AACLmaPVROcRrjCycUf/3jK8FxkA CCWBgpDQPzBBlzu4gzu4gzu4gzu4gzu4gzu4gzu4gzu4gzu4g3cN/z+nRfeit5ztBQAAAABJRU5E rkJggg== "
         id="image3079"
         x="5.2265038"
         y="826.3266" />
      <g
         id="g3943">
        <path
           inkscape:connector-curvature="0"
           id="path3898"
           d="m 42.599545,942.50831 c -0.278148,-0.4501 -1.245919,-4.1626 -2.150604,-8.25 -0.904685,-4.0875 -2.301388,-9.7626 -3.103785,-12.6113 l -1.458905,-5.1796 -6.628766,-2.1416 c -8.693038,-2.8084 -13.960683,-5.5523 -15.236817,-7.9368 -1.458797,-2.7258 -1.20802,-8.11614 0.87861,-18.88542 1.849134,-9.54354 4.055397,-13.90907 7.916398,-15.66417 2.683103,-1.21966 2.709556,-3.11164 0.171557,-12.27031 -2.585184,-9.32895 -2.548179,-11.06948 0.25,-11.75847 4.349237,-1.07089 66.614421,-10.53861 68.250001,-10.37773 2.265668,0.22286 -6.762894,1.94266 -18.000001,3.42873 -6.6,0.87283 -15.825,2.27106 -20.5,3.10717 -9.871677,1.76553 -26.046177,4.33344 -27.5,4.36598 -0.55,0.0123 -1.607268,0.40722 -2.349484,0.87757 -1.111604,0.70444 -0.936851,2.62172 0.991365,10.87662 l 2.340849,10.02143 7.680678,0.66999 c 8.927592,0.77877 14.23174,3.68078 20.824334,11.39346 5.9398,6.94897 15.134989,26.00075 16.527713,34.24415 0.726961,4.3029 0.738615,4.313 2.482467,2.1594 l 1.752078,-2.1637 0,2.4747 c 0,1.361 -0.441793,2.7477 -0.981763,3.0814 -0.586119,0.3622 -0.434997,0.9532 0.375,1.4664 0.998332,0.6326 1.026536,0.8638 0.106763,0.875 -2.041336,0.025 -1.427781,2.4997 1.241488,5.0073 l 2.491488,2.3407 6.185876,-1.7198 c 9.515797,-2.6457 31.831145,-11.6645 31.831145,-12.8647 0,-0.5879 -2.47411,-13.7092 -5.49802,-29.15852 -3.02392,-15.4493 -6.43713,-33.03195 -7.58493,-39.07256 -1.1478,-6.0406 -2.27378,-11.28527 -2.50217,-11.65481 -0.22839,-0.36955 -2.327672,-0.49773 -4.665067,-0.28484 l -4.249809,0.38706 3.957294,-1.00969 c 2.176512,-0.55533 4.483532,-0.80775 5.126712,-0.56094 1.03844,0.39849 3.39667,11.18043 6.36609,29.10614 0.54665,3.3 3.03151,16.1167 5.52191,28.48155 2.49039,12.36481 4.52799,23.21281 4.52799,24.10651 0,1.6586 -14.9421,7.9758 -30.754456,13.0024 -5.916419,1.8807 -7.153071,2.6255 -6.704763,4.038 0.487491,1.536 0.213932,1.6052 -2.41738,0.612 -2.584824,-0.9756 -4.758708,-0.5157 -16.873819,3.5698 -13.779926,4.647 -17.659861,5.4529 -18.637267,3.8715 z m 19.050275,-4.9851 14.162587,-4.777 -1.834375,-2.4319 c -1.008906,-1.3375 -1.643284,-2.741 -1.409728,-3.1189 0.233555,-0.3779 -1.85389,-3.414 -4.638767,-6.7469 l -5.063414,-6.0597 2.004325,-4.5311 c 1.102378,-2.4922 1.651655,-4.5312 1.220614,-4.5312 -0.43104,0 -1.384705,1.8211 -2.119254,4.0468 l -1.335544,4.0467 -2.007135,-2.0071 c -1.103924,-1.1039 -2.074736,-2.9248 -2.15736,-4.0463 -0.08263,-1.1215 0.07065,-1.8182 0.34061,-1.5482 0.269959,0.2699 1.109074,-0.022 1.864698,-0.6494 1.144916,-0.9502 1.200587,-0.6845 0.334071,1.5946 -0.686424,1.8055 -0.697249,2.6207 -0.03185,2.3989 0.554363,-0.1848 0.982356,-0.561 0.951092,-0.836 -0.03126,-0.275 0.594565,-2.0492 1.390731,-3.9427 1.459546,-3.4713 0.575374,-8.05726 -1.55342,-8.05726 -0.494176,0 -0.667815,-0.37326 -0.385865,-0.82946 0.28195,-0.45621 -0.253992,-0.77299 -1.190983,-0.70396 -0.936991,0.069 -1.860495,0.55479 -2.052232,1.07947 -1.00252,2.74333 -2.35001,4.44921 -3.132463,3.96561 -0.484401,-0.2993 -1.175563,-0.067 -1.535917,0.5158 -0.801016,1.2961 1.400624,4.1625 2.618844,3.4096 0.481382,-0.2975 0.597881,0.1819 0.258888,1.0653 -0.535292,1.3949 -0.961207,1.3053 -3.238545,-0.6813 -1.442207,-1.258 -0.792633,-0.2699 1.443498,2.1958 2.23613,2.4657 6.51113,7.4081 9.5,10.9831 2.988869,3.575 6.018236,7.1161 6.731926,7.8691 0.713691,0.753 1.163691,1.428 1,1.5 -0.16369,0.072 -1.591014,1.2559 -3.17183,2.6309 -2.848481,2.4777 -2.86802,2.4799 -2.182612,0.25 0.610704,-1.9868 0.340898,-2.25 -2.3067,-2.25 -1.649064,0 -8.081941,-2.2224 -14.295281,-4.9387 -6.213341,-2.7164 -11.463433,-4.7724 -11.666871,-4.5689 -0.425769,0.4258 3.663538,18.8851 4.930751,22.2576 0.464982,1.2375 1.64406,2.2441 2.620173,2.2369 0.976113,-0.01 8.147915,-2.1629 15.937338,-4.7902 z m -4.059581,-35.03 c -0.283266,-0.4583 0.120382,-0.8333 0.896994,-0.8333 0.776612,0 1.18026,0.375 0.896994,0.8333 -0.283265,0.4583 -0.686913,0.8333 -0.896994,0.8333 -0.210081,0 -0.613729,-0.375 -0.896994,-0.8333 z m 8.790469,23.2358 c 1.399121,-0.5368 1.403097,-0.8952 0.0392,-3.5326 -0.834818,-1.6144 -1.948686,-2.669 -2.475263,-2.3435 -0.526577,0.3254 -0.957412,0.1151 -0.957412,-0.4673 0,-0.5825 -0.701558,-1.0591 -1.559017,-1.0591 -0.857459,0 -1.30424,0.4123 -0.992846,0.9161 0.311394,0.5039 0.135491,2.0489 -0.390896,3.4334 -0.681857,1.7934 -0.612025,2.6575 0.242846,3.005 1.750169,0.7113 4.312303,0.7315 6.093388,0.048 z m -1.393475,-1.2948 c 0,-0.6741 -0.519529,-0.9046 -1.154508,-0.5122 -0.744214,0.46 -0.881795,0.2723 -0.387133,-0.5281 0.54526,-0.8822 1.077221,-0.9318 1.837842,-0.1712 0.588756,0.5888 0.762966,1.378 0.387132,1.7538 -0.375833,0.3759 -0.683333,0.1318 -0.683333,-0.5423 z m -6.748432,-3.6433 c 0.445401,-2.33 0.34707,-2.4111 -1.212164,-1 -2.3961,2.1684 -3.171442,1.9099 -2.484195,-0.8283 0.453294,-1.8061 0.123696,-2.4868 -1.39662,-2.8843 -1.094463,-0.2862 -2.568678,-0.01 -3.276033,0.6139 -0.719327,0.6345 -0.646317,0.2915 0.165672,-0.7783 1.123633,-1.4803 1.167831,-2.0082 0.195541,-2.3354 -0.690926,-0.2325 -0.942045,-0.9468 -0.558041,-1.5874 0.469129,-0.7825 0.194929,-0.7573 -0.835779,0.077 -0.843682,0.6828 -1.853847,0.9215 -2.244811,0.5305 -0.390964,-0.3909 -0.441581,-0.01 -0.112482,0.8485 0.329099,0.8576 -0.09216,2.1324 -0.936137,2.8328 -1.65132,1.3705 -1.104384,3.5035 0.624383,2.4351 0.573488,-0.3544 1.329893,-0.2022 1.680901,0.3383 0.913882,1.4073 6.343499,4.1862 8.27162,4.2335 0.970519,0.024 1.830141,-0.9891 2.118145,-2.4956 z m 11.379033,-6.9846 c -0.667551,-1.7396 -2.640274,-1.1141 -2.615288,0.8293 0.0092,0.7156 0.402227,0.5922 0.984687,-0.3091 0.811024,-1.2549 0.971876,-1.1869 0.984687,0.4167 0.0084,1.0542 0.295905,1.6361 0.638852,1.2931 0.342946,-0.3429 0.346124,-1.3464 0.0071,-2.23 z m -24.173306,-2.4107 c 0.316431,-0.512 0.192988,-1.1672 -0.274316,-1.456 -0.467305,-0.2888 -0.849646,0.1301 -0.849646,0.9309 0,1.6862 0.315337,1.8335 1.123962,0.5251 z m 3.542705,-10.9621 c 0,-0.4911 -0.73865,-1.1764 -1.641444,-1.5229 -1.372472,-0.52663 -1.434339,-0.3803 -0.377555,0.8931 1.440126,1.7352 2.018999,1.9158 2.018999,0.6298 z m 4.524227,-3.21726 c 0.372955,-1.69806 0.24099,-3.52448 -0.293255,-4.05873 -0.628474,-0.62847 -0.871573,-0.0624 -0.688679,1.60377 0.155472,1.41631 -0.135282,2.31681 -0.64612,2.00109 -0.510838,-0.31571 -0.689116,-0.96184 -0.396173,-1.43583 0.292943,-0.47399 0.0058,-1.18743 -0.638197,-1.58541 -0.704626,-0.43548 -0.903715,-0.29142 -0.5,0.3618 1.07006,1.7314 -1.007254,2.35574 -2.370941,0.7126 -0.679663,-0.81895 -1.678241,-1.48899 -2.219062,-1.48899 -0.540821,0 0.526779,1.41882 2.372445,3.15292 1.845665,1.73411 3.232106,3.56754 3.080978,4.07434 -0.151127,0.5068 0.151752,0.6578 0.673064,0.3356 0.521312,-0.3222 1.252985,-1.9751 1.62594,-3.67316 z m -9.524227,-1.26726 c 0,-0.20765 -0.7875,-0.99515 -1.75,-1.75 -1.586056,-1.24387 -1.621426,-1.2085 -0.377555,0.37756 1.306369,1.66575 2.127555,2.19548 2.127555,1.37244 z m -3.5,-21.62244 c -0.339919,-0.55 -0.816476,-1 -1.059017,-1 -0.242541,0 -0.440983,0.45 -0.440983,1 0,0.55 0.476558,1 1.059017,1 0.582459,0 0.780902,-0.45 0.440983,-1 z m -2.710337,-1.49887 c -0.159315,-0.13468 -2.475215,-0.56231 -5.146445,-0.95029 -3.415672,-0.4961 -4.656234,-0.38092 -4.180902,0.38819 0.371734,0.60148 1.091222,0.8369 1.598862,0.52316 0.507641,-0.31374 1.665461,-0.15492 2.572935,0.35293 1.363612,0.76311 6.089249,0.47531 5.15555,-0.31399 z"
           style="opacity:0;fill:#000000" />
      </g>
    </g>
    <g
       id="g3965"
       transform="translate(-3.1786776,-5.9452072)"
       inkscape:export-filename="/home/nissl/develop/eclipse-anacleto-workspace/org.pragmas.anacleto/about.png"
       inkscape:export-xdpi="88.253693"
       inkscape:export-ydpi="88.253693">
      <text
         xml:space="preserve"
         style="font-size:16px;font-style:normal;font-variant:normal;font-weight:normal;font-stretch:normal;text-align:start;line-height:125%;letter-spacing:0px;word-spacing:0px;writing-mode:lr-tb;text-anchor:start;fill:#000000;fill-opacity:1;stroke:none;font-family:Arial;-inkscape-font-specification:Arial"
         x="130.08496"
         y="852.28998"
         id="text3967"
         sodipodi:linespacing="125%"><tspan
           sodipodi:role="line"
           id="tspan3969"
           x="130.08496"
           y="852.28998"
           style="font-size:48px;font-style:normal;font-variant:normal;font-weight:bold;font-stretch:normal;text-align:start;line-height:125%;writing-mode:lr-tb;text-anchor:start;font-family:Ubuntu;-inkscape-font-specification:Ubuntu Bold">Hi.Doc</tspan></text>
      <text
         xml:space="preserve"
         style="font-size:12px;font-style:normal;font-variant:normal;font-weight:bold;font-stretch:normal;text-align:start;line-height:125%;letter-spacing:0px;word-spacing:0px;writing-mode:lr-tb;text-anchor:start;fill:#000000;fill-opacity:1;stroke:none;font-family:Arial;-inkscape-font-specification:Arial Bold"
         x="281.47037"
         y="851.81146"
         id="text3971"
         sodipodi:linespacing="125%"><tspan
           sodipodi:role="line"
           id="tspan3973"
           x="281.47037"
           y="851.81146">version 1.0.0.0</tspan></text>
    </g>
    <text
       xml:space="preserve"
       style="font-size:12px;font-style:normal;font-variant:normal;font-weight:normal;font-stretch:normal;text-align:start;line-height:125%;letter-spacing:0px;word-spacing:0px;writing-mode:lr-tb;text-anchor:start;fill:#000000;fill-opacity:1;stroke:none;font-family:Arial;-inkscape-font-specification:Arial"
       x="131.60641"
       y="866.1795"
       id="text4067"
       sodipodi:linespacing="125%"
       inkscape:export-filename="/home/nissl/develop/eclipse-anacleto-workspace/org.pragmas.anacleto/about.png"
       inkscape:export-xdpi="88.253693"
       inkscape:export-ydpi="88.253693"><tspan
         sodipodi:role="line"
         id="tspan4069"
         x="131.60641"
         y="866.1795">(c) 2011 Pragmas http://pragmas.org</tspan></text>
    <text
       xml:space="preserve"
       style="font-size:11px;font-style:normal;font-variant:normal;font-weight:bold;font-stretch:normal;text-align:start;line-height:125%;letter-spacing:0px;word-spacing:0px;writing-mode:lr-tb;text-anchor:start;fill:#000000;fill-opacity:1;stroke:none;font-family:Arial;-inkscape-font-specification:Arial Bold"
       x="11.948997"
       y="1011.0206"
       id="text4071"
       sodipodi:linespacing="125%"
       inkscape:export-filename="/home/nissl/develop/eclipse-anacleto-workspace/org.pragmas.anacleto/about.png"
       inkscape:export-xdpi="88.253693"
       inkscape:export-ydpi="88.253693"><tspan
         sodipodi:role="line"
         id="tspan4073"
         x="11.948997"
         y="1011.0206">this software contains code with several licences, referer to readme file</tspan></text>
    <text
       sodipodi:linespacing="125%"
       id="text4079"
       y="880.1795"
       x="131.60641"
       style="font-size:12px;font-style:normal;font-variant:normal;font-weight:normal;font-stretch:normal;text-align:start;line-height:125%;letter-spacing:0px;word-spacing:0px;writing-mode:lr-tb;text-anchor:start;fill:#000000;fill-opacity:1;stroke:none;font-family:Arial;-inkscape-font-specification:Arial"
       xml:space="preserve"
       inkscape:export-filename="/home/nissl/develop/eclipse-anacleto-workspace/org.pragmas.anacleto/about.png"
       inkscape:export-xdpi="88.253693"
       inkscape:export-ydpi="88.253693"><tspan
         y="880.1795"
         x="131.60641"
         id="tspan4081"
         sodipodi:role="line">(email: contact.info@pragmas.org</tspan></text>
  </g>
</svg>
